program.out
Chronologic VCS simulator copyright 1991-2017
Contains Synopsys proprietary information.
Compiler version N-2017.12-SP2-1_Full64; Runtime version N-2017.12-SP2-1_Full64;  Feb 25 19:35 2020
start
Time|reset|load_in|opa_in|opa_valid|opb_in|opb_valid|is_free|ready
   0  x    x     xxxxxxxx   1   xxxxxxxx 1     x     x
  15  1    x     xxxxxxxx   1   xxxxxxxx 1     x     x
  20  1    x     xxxxxxxx   1   xxxxxxxx 1     1     0
  25  0    x     xxxxxxxx   1   xxxxxxxx 1     1     0
opa_in: 06d7cd0d
opb_in: 1e8dcd3d
j: 1
k: 2
CDB_Data[          0]: 7cfde9f9
CDB_PRF_idx[          0]: 06
CDB_Data[          1]: d513d2aa
CDB_PRF_idx[          1]: 25
CDB_Data[          2]: 8932d612
CDB_PRF_idx[          2]: 0f
  35  0    1     06d7cd0d   1   1e8dcd3d 1     1     0
  40  0    1     06d7cd0d   1   1e8dcd3d 1     0     1
  45  0    0     06d7cd0d   1   1e8dcd3d 1     0     1
CDB_valid[ 1] 1
CDB_PRF_idx[ 1] 25
CDB_valid[ 2] 1
CDB_PRF_idx[ 2] 0f
 305  1    0     06d7cd0d   1   1e8dcd3d 1     0     1
 310  1    0     06d7cd0d   1   1e8dcd3d 1     1     0
 315  0    0     06d7cd0d   1   1e8dcd3d 1     1     0
opa_in: 8983b813
opb_in: a9a7d653
j: 2
k: 0
CDB_Data[          0]: 81174a02
CDB_PRF_idx[          0]: 2e
CDB_Data[          1]: e7c572cf
CDB_PRF_idx[          1]: 23
CDB_Data[          2]: e5730aca
CDB_PRF_idx[          2]: 3c
 325  0    1     8983b813   1   a9a7d653 1     1     0
 330  0    1     8983b813   1   a9a7d653 1     0     1
 335  0    0     8983b813   1   a9a7d653 1     0     1
CDB_valid[ 2] 1
CDB_PRF_idx[ 2] 3c
CDB_valid[ 0] 1
CDB_PRF_idx[ 0] 2e
 495  1    0     8983b813   1   a9a7d653 1     0     1
 500  1    0     8983b813   1   a9a7d653 1     1     0
 505  0    0     8983b813   1   a9a7d653 1     1     0
opa_in: 27f2554f
opb_in: 1d06333a
j: 2
k: 0
CDB_Data[          0]: 78d99bf1
CDB_PRF_idx[          0]: 19
CDB_Data[          1]: 2635fb4c
CDB_PRF_idx[          1]: 1f
CDB_Data[          2]: 7c6da9f8
CDB_PRF_idx[          2]: 37
 515  0    1     27f2554f   1   1d06333a 1     1     0
 520  0    1     27f2554f   1   1d06333a 1     0     1
 525  0    0     27f2554f   1   1d06333a 1     0     1
CDB_valid[ 2] 1
CDB_PRF_idx[ 2] 37
CDB_valid[ 0] 1
CDB_PRF_idx[ 0] 19
 715  1    0     27f2554f   1   1d06333a 1     0     1
 720  1    0     27f2554f   1   1d06333a 1     1     0
 725  0    0     27f2554f   1   1d06333a 1     1     0
opa_in: bf05007e
opb_in: 1cd9e739
j: 0
k: 1
CDB_Data[          0]: 42d92f85
CDB_PRF_idx[          0]: 38
CDB_Data[          1]: 248b4b49
CDB_PRF_idx[          1]: 3f
CDB_Data[          2]: 2c156358
CDB_PRF_idx[          2]: 06
 735  0    1     bf05007e   1   1cd9e739 1     1     0
 740  0    1     bf05007e   1   1cd9e739 1     0     1
 745  0    0     bf05007e   1   1cd9e739 1     0     1
CDB_valid[ 0] 1
CDB_PRF_idx[ 0] 38
CDB_valid[ 1] 1
CDB_PRF_idx[ 1] 3f
 925  1    0     bf05007e   1   1cd9e739 1     0     1
 930  1    0     bf05007e   1   1cd9e739 1     1     0
 935  0    0     bf05007e   1   1cd9e739 1     1     0
opa_in: f682e2ed
opb_in: b29fb665
j: 2
k: 0
CDB_Data[          0]: 3cf11979
CDB_PRF_idx[          0]: 04
CDB_Data[          1]: 15090b2a
CDB_PRF_idx[          1]: 2b
CDB_Data[          2]: 6e5daddc
CDB_PRF_idx[          2]: 1a
 945  0    1     f682e2ed   1   b29fb665 1     1     0
 950  0    1     f682e2ed   1   b29fb665 1     0     1
 955  0    0     f682e2ed   1   b29fb665 1     0     1
CDB_valid[ 2] 1
CDB_PRF_idx[ 2] 1a
CDB_valid[ 0] 1
CDB_PRF_idx[ 0] 04
1185  1    0     f682e2ed   1   b29fb665 1     0     1
1190  1    0     f682e2ed   1   b29fb665 1     1     0
1195  0    0     f682e2ed   1   b29fb665 1     1     0
opa_in: a6fcde4d
opb_in: b6a4266d
j: 0
k: 1
CDB_Data[          0]: 5b172db6
CDB_PRF_idx[          0]: 15
CDB_Data[          1]: 02749b04
CDB_PRF_idx[          1]: 37
CDB_Data[          2]: da6ebab4
CDB_PRF_idx[          2]: 08
1205  0    1     a6fcde4d   1   b6a4266d 1     1     0
1210  0    1     a6fcde4d   1   b6a4266d 1     0     1
1215  0    0     a6fcde4d   1   b6a4266d 1     0     1
CDB_valid[ 0] 1
CDB_PRF_idx[ 0] 15
CDB_valid[ 1] 1
CDB_PRF_idx[ 1] 37
1405  1    0     a6fcde4d   1   b6a4266d 1     0     1
1410  1    0     a6fcde4d   1   b6a4266d 1     1     0
1415  0    0     a6fcde4d   1   b6a4266d 1     1     0
opa_in: 5d7199ba
opb_in: 7d4779fa
j: 2
k: 0
CDB_Data[          0]: dcf000b9
CDB_PRF_idx[          0]: 37
CDB_Data[          1]: 603921c0
CDB_PRF_idx[          1]: 26
CDB_Data[          2]: 3e99837d
CDB_PRF_idx[          2]: 1c
1425  0    1     5d7199ba   1   7d4779fa 1     1     0
1430  0    1     5d7199ba   1   7d4779fa 1     0     1
1435  0    0     5d7199ba   1   7d4779fa 1     0     1
CDB_valid[ 2] 1
CDB_PRF_idx[ 2] 1c
CDB_valid[ 0] 1
CDB_PRF_idx[ 0] 37
1575  1    0     5d7199ba   1   7d4779fa 1     0     1
1580  1    0     5d7199ba   1   7d4779fa 1     1     0
1585  0    0     5d7199ba   1   7d4779fa 1     1     0
opa_in: 60b175c1
opb_in: cc01b498
j: 2
k: 0
CDB_Data[          0]: f622e6ec
CDB_PRF_idx[          0]: 0a
CDB_Data[          1]: d44b80a8
CDB_PRF_idx[          1]: 29
CDB_Data[          2]: 070bb90e
CDB_PRF_idx[          2]: 26
1595  0    1     60b175c1   1   cc01b498 1     1     0
1600  0    1     60b175c1   1   cc01b498 1     0     1
1605  0    0     60b175c1   1   cc01b498 1     0     1
CDB_valid[ 2] 1
CDB_PRF_idx[ 2] 26
CDB_valid[ 0] 1
CDB_PRF_idx[ 0] 0a
1685  1    0     60b175c1   1   cc01b498 1     0     1
1690  1    0     60b175c1   1   cc01b498 1     1     0
1695  0    0     60b175c1   1   cc01b498 1     1     0
opa_in: 5c8295b9
opb_in: da269ab4
j: 0
k: 1
CDB_Data[          0]: 7d6df5fa
CDB_PRF_idx[          0]: 32
CDB_Data[          1]: dece5ebd
CDB_PRF_idx[          1]: 04
CDB_Data[          2]: 6543cfca
CDB_PRF_idx[          2]: 29
1705  0    1     5c8295b9   1   da269ab4 1     1     0
1710  0    1     5c8295b9   1   da269ab4 1     0     1
1715  0    0     5c8295b9   1   da269ab4 1     0     1
CDB_valid[ 0] 1
CDB_PRF_idx[ 0] 32
CDB_valid[ 1] 1
CDB_PRF_idx[ 1] 04
1975  1    0     5c8295b9   1   da269ab4 1     0     1
1980  1    0     5c8295b9   1   da269ab4 1     1     0
1985  0    0     5c8295b9   1   da269ab4 1     1     0
opa_in: 9684e02d
opb_in: e169b0c2
j: 2
k: 0
CDB_Data[          0]: 7679fdec
CDB_PRF_idx[          0]: 18
CDB_Data[          1]: c3761c86
CDB_PRF_idx[          1]: 01
CDB_Data[          2]: 6c44f9d8
CDB_PRF_idx[          2]: 13
1995  0    1     9684e02d   1   e169b0c2 1     1     0
2000  0    1     9684e02d   1   e169b0c2 1     0     1
2005  0    0     9684e02d   1   e169b0c2 1     0     1
CDB_valid[ 2] 1
CDB_PRF_idx[ 2] 13
CDB_valid[ 0] 1
CDB_PRF_idx[ 0] 18
2295  1    0     9684e02d   1   e169b0c2 1     0     1
2300  1    0     9684e02d   1   e169b0c2 1     1     0
2305  0    0     9684e02d   1   e169b0c2 1     1     0
opa_in: 50d5f9a1
opb_in: 82223a04
j: 2
k: 0
CDB_Data[          0]: 0a6e9314
CDB_PRF_idx[          0]: 12
CDB_Data[          1]: d8ace2b1
CDB_PRF_idx[          1]: 15
CDB_Data[          2]: 158b2b2b
CDB_PRF_idx[          2]: 35
2315  0    1     50d5f9a1   1   82223a04 1     1     0
2320  0    1     50d5f9a1   1   82223a04 1     0     1
2325  0    0     50d5f9a1   1   82223a04 1     0     1
CDB_valid[ 2] 1
CDB_PRF_idx[ 2] 35
CDB_valid[ 0] 1
CDB_PRF_idx[ 0] 12
2525  1    0     50d5f9a1   1   82223a04 1     0     1
2530  1    0     50d5f9a1   1   82223a04 1     1     0
2535  0    0     50d5f9a1   1   82223a04 1     1     0
opa_in: be75427c
opb_in: ff4f3cfe
j: 2
k: 0
CDB_Data[          0]: 43460d86
CDB_PRF_idx[          0]: 30
CDB_Data[          1]: 20769140
CDB_PRF_idx[          1]: 28
CDB_Data[          2]: e2bf1ac5
CDB_PRF_idx[          2]: 00
2545  0    1     be75427c   1   ff4f3cfe 1     1     0
2550  0    1     be75427c   1   ff4f3cfe 1     0     1
2555  0    0     be75427c   1   ff4f3cfe 1     0     1
CDB_valid[ 2] 1
CDB_PRF_idx[ 2] 00
CDB_valid[ 0] 1
CDB_PRF_idx[ 0] 30
2815  1    0     be75427c   1   ff4f3cfe 1     0     1
2820  1    0     be75427c   1   ff4f3cfe 1     1     0
2825  0    0     be75427c   1   ff4f3cfe 1     1     0
opa_in: ad67e25a
opb_in: 165b7b2c
j: 0
k: 1
CDB_Data[          0]: 9de17c3b
CDB_PRF_idx[          0]: 36
CDB_Data[          1]: cf14ce9e
CDB_PRF_idx[          1]: 1c
CDB_Data[          2]: 902a3a20
CDB_PRF_idx[          2]: 20
2835  0    1     ad67e25a   1   165b7b2c 1     1     0
2840  0    1     ad67e25a   1   165b7b2c 1     0     1
2845  0    0     ad67e25a   1   165b7b2c 1     0     1
CDB_valid[ 0] 1
CDB_PRF_idx[ 0] 36
CDB_valid[ 1] 1
CDB_PRF_idx[ 1] 1c
3065  1    0     ad67e25a   1   165b7b2c 1     0     1
3070  1    0     ad67e25a   1   165b7b2c 1     1     0
3075  0    0     ad67e25a   1   165b7b2c 1     1     0
opa_in: ca9cbc95
opb_in: f6a178ed
j: 2
k: 0
CDB_Data[          0]: 46dcb78d
CDB_PRF_idx[          0]: 12
CDB_Data[          1]: 236afd46
CDB_PRF_idx[          1]: 0c
CDB_Data[          2]: 0beac117
CDB_PRF_idx[          2]: 2a
3085  0    1     ca9cbc95   1   f6a178ed 1     1     0
3090  0    1     ca9cbc95   1   f6a178ed 1     0     1
3095  0    0     ca9cbc95   1   f6a178ed 1     0     1
CDB_valid[ 2] 1
CDB_PRF_idx[ 2] 2a
CDB_valid[ 0] 1
CDB_PRF_idx[ 0] 12
3285  1    0     ca9cbc95   1   f6a178ed 1     0     1
3290  1    0     ca9cbc95   1   f6a178ed 1     1     0
3295  0    0     ca9cbc95   1   f6a178ed 1     1     0
opa_in: 23907547
opb_in: 9caf7a39
j: 1
k: 2
CDB_Data[          0]: 9622502c
CDB_PRF_idx[          0]: 0c
CDB_Data[          1]: b522406a
CDB_PRF_idx[          1]: 11
CDB_Data[          2]: a5e79e4b
CDB_PRF_idx[          2]: 33
3305  0    1     23907547   1   9caf7a39 1     1     0
3310  0    1     23907547   1   9caf7a39 1     0     1
3315  0    0     23907547   1   9caf7a39 1     0     1
CDB_valid[ 1] 1
CDB_PRF_idx[ 1] 11
CDB_valid[ 2] 1
CDB_PRF_idx[ 2] 33
3415  1    0     23907547   1   9caf7a39 1     0     1
3420  1    0     23907547   1   9caf7a39 1     1     0
3425  0    0     23907547   1   9caf7a39 1     1     0
opa_in: 49b16f93
opb_in: 954b822a
j: 2
k: 0
CDB_Data[          0]: 1d3f9d3a
CDB_PRF_idx[          0]: 04
CDB_Data[          1]: 1c8d7f39
CDB_PRF_idx[          1]: 12
CDB_Data[          2]: 2c848959
CDB_PRF_idx[          2]: 10
3435  0    1     49b16f93   1   954b822a 1     1     0
3440  0    1     49b16f93   1   954b822a 1     0     1
3445  0    0     49b16f93   1   954b822a 1     0     1
CDB_valid[ 2] 1
CDB_PRF_idx[ 2] 10
CDB_valid[ 0] 1
CDB_PRF_idx[ 0] 04
3715  1    0     49b16f93   1   954b822a 1     0     1
3720  1    0     49b16f93   1   954b822a 1     1     0
3725  0    0     49b16f93   1   954b822a 1     1     0
opa_in: 3b83cd77
opb_in: ec3758d8
j: 2
k: 0
CDB_Data[          0]: 5c78b1b8
CDB_PRF_idx[          0]: 37
CDB_Data[          1]: 984d5a30
CDB_PRF_idx[          1]: 37
CDB_Data[          2]: 6a15f5d4
CDB_PRF_idx[          2]: 07
3735  0    1     3b83cd77   1   ec3758d8 1     1     0
3740  0    1     3b83cd77   1   ec3758d8 1     0     1
3745  0    0     3b83cd77   1   ec3758d8 1     0     1
CDB_valid[ 2] 1
CDB_PRF_idx[ 2] 07
CDB_valid[ 0] 1
CDB_PRF_idx[ 0] 37
3995  1    0     3b83cd77   1   ec3758d8 1     0     1
4000  1    0     3b83cd77   1   ec3758d8 1     1     0
4005  0    0     3b83cd77   1   ec3758d8 1     1     0
opa_in: f78576ef
opb_in: cab47c95
j: 2
k: 0
CDB_Data[          0]: f29c5ee5
CDB_PRF_idx[          0]: 28
CDB_Data[          1]: 14b43729
CDB_PRF_idx[          1]: 21
CDB_Data[          2]: 3715156e
CDB_PRF_idx[          2]: 01
4015  0    1     f78576ef   1   cab47c95 1     1     0
4020  0    1     f78576ef   1   cab47c95 1     0     1
4025  0    0     f78576ef   1   cab47c95 1     0     1
CDB_valid[ 2] 1
CDB_PRF_idx[ 2] 01
CDB_valid[ 0] 1
CDB_PRF_idx[ 0] 28
4285  1    0     f78576ef   1   cab47c95 1     0     1
4290  1    0     f78576ef   1   cab47c95 1     1     0
4295  0    0     f78576ef   1   cab47c95 1     1     0
opa_in: 5cd20db9
opb_in: 09c83513
j: 2
k: 0
CDB_Data[          0]: db983ab7
CDB_PRF_idx[          0]: 19
CDB_Data[          1]: b8ea3a71
CDB_PRF_idx[          1]: 22
CDB_Data[          2]: 1513dd2a
CDB_PRF_idx[          2]: 3d
4305  0    1     5cd20db9   1   09c83513 1     1     0
4310  0    1     5cd20db9   1   09c83513 1     0     1
4315  0    0     5cd20db9   1   09c83513 1     0     1
CDB_valid[ 2] 1
CDB_PRF_idx[ 2] 3d
CDB_valid[ 0] 1
CDB_PRF_idx[ 0] 19
4485  1    0     5cd20db9   1   09c83513 1     0     1
4490  1    0     5cd20db9   1   09c83513 1     1     0
4495  0    0     5cd20db9   1   09c83513 1     1     0
opa_in: bd86f47b
opb_in: bc3f8478
j: 0
k: 1
CDB_Data[          0]: 11cc9b23
CDB_PRF_idx[          0]: 39
CDB_Data[          1]: ddd146bb
CDB_PRF_idx[          1]: 0e
CDB_Data[          2]: 0671030c
CDB_PRF_idx[          2]: 0e
4505  0    1     bd86f47b   1   bc3f8478 1     1     0
4510  0    1     bd86f47b   1   bc3f8478 1     0     1
4515  0    0     bd86f47b   1   bc3f8478 1     0     1
CDB_valid[ 0] 1
CDB_PRF_idx[ 0] 39
CDB_valid[ 1] 1
CDB_PRF_idx[ 1] 0e
4665  1    0     bd86f47b   1   bc3f8478 1     0     1
4670  1    0     bd86f47b   1   bc3f8478 1     1     0
4675  0    0     bd86f47b   1   bc3f8478 1     1     0
opa_in: 46e7538d
opb_in: 747331e8
j: 0
k: 1
CDB_Data[          0]: a620904c
CDB_PRF_idx[          0]: 3b
CDB_Data[          1]: 12a90325
CDB_PRF_idx[          1]: 0d
CDB_Data[          2]: 16cbf92d
CDB_PRF_idx[          2]: 29
4685  0    1     46e7538d   1   747331e8 1     1     0
4690  0    1     46e7538d   1   747331e8 1     0     1
4695  0    0     46e7538d   1   747331e8 1     0     1
CDB_valid[ 0] 1
CDB_PRF_idx[ 0] 3b
CDB_valid[ 1] 1
CDB_PRF_idx[ 1] 0d
4955  1    0     46e7538d   1   747331e8 1     0     1
4960  1    0     46e7538d   1   747331e8 1     1     0
4965  0    0     46e7538d   1   747331e8 1     1     0
opa_in: 23400b46
opb_in: c9cbbc93
j: 2
k: 0
CDB_Data[          0]: 22d5f145
CDB_PRF_idx[          0]: 23
CDB_Data[          1]: 9372ce26
CDB_PRF_idx[          1]: 28
CDB_Data[          2]: c838f490
CDB_PRF_idx[          2]: 1a
4975  0    1     23400b46   1   c9cbbc93 1     1     0
4980  0    1     23400b46   1   c9cbbc93 1     0     1
4985  0    0     23400b46   1   c9cbbc93 1     0     1
CDB_valid[ 2] 1
CDB_PRF_idx[ 2] 1a
CDB_valid[ 0] 1
CDB_PRF_idx[ 0] 23
5105  1    0     23400b46   1   c9cbbc93 1     0     1
5110  1    0     23400b46   1   c9cbbc93 1     1     0
5115  0    0     23400b46   1   c9cbbc93 1     1     0
opa_in: f98bc0f3
opb_in: 62056bc4
j: 0
k: 1
CDB_Data[          0]: cd1d509a
CDB_PRF_idx[          0]: 18
CDB_Data[          1]: 5515d1aa
CDB_PRF_idx[          1]: 1a
CDB_Data[          2]: 5934e9b2
CDB_PRF_idx[          2]: 0c
5125  0    1     f98bc0f3   1   62056bc4 1     1     0
5130  0    1     f98bc0f3   1   62056bc4 1     0     1
5135  0    0     f98bc0f3   1   62056bc4 1     0     1
CDB_valid[ 0] 1
CDB_PRF_idx[ 0] 18
CDB_valid[ 1] 1
CDB_PRF_idx[ 1] 1a
5355  1    0     f98bc0f3   1   62056bc4 1     0     1
5360  1    0     f98bc0f3   1   62056bc4 1     1     0
5365  0    0     f98bc0f3   1   62056bc4 1     1     0
opa_in: 2ed6d95d
opb_in: 82344204
j: 1
k: 2
CDB_Data[          0]: 196a0332
CDB_PRF_idx[          0]: 39
CDB_Data[          1]: 8b42ec16
CDB_PRF_idx[          1]: 2a
CDB_Data[          2]: 9759882e
CDB_PRF_idx[          2]: 0c
5375  0    1     2ed6d95d   1   82344204 1     1     0
5380  0    1     2ed6d95d   1   82344204 1     0     1
5385  0    0     2ed6d95d   1   82344204 1     0     1
CDB_valid[ 1] 1
CDB_PRF_idx[ 1] 2a
CDB_valid[ 2] 1
CDB_PRF_idx[ 2] 0c
5565  1    0     2ed6d95d   1   82344204 1     0     1
5570  1    0     2ed6d95d   1   82344204 1     1     0
5575  0    0     2ed6d95d   1   82344204 1     1     0
opa_in: 0d63751a
opb_in: eb8804d7
j: 2
k: 0
CDB_Data[          0]: 66861dcd
CDB_PRF_idx[          0]: 05
CDB_Data[          1]: 4c18c798
CDB_PRF_idx[          1]: 2c
CDB_Data[          2]: b2d14a65
CDB_PRF_idx[          2]: 37
5585  0    1     0d63751a   1   eb8804d7 1     1     0
5590  0    1     0d63751a   1   eb8804d7 1     0     1
5595  0    0     0d63751a   1   eb8804d7 1     0     1
CDB_valid[ 2] 1
CDB_PRF_idx[ 2] 37
CDB_valid[ 0] 1
CDB_PRF_idx[ 0] 05
5835  1    0     0d63751a   1   eb8804d7 1     0     1
5840  1    0     0d63751a   1   eb8804d7 1     1     0
5845  0    0     0d63751a   1   eb8804d7 1     1     0
opa_in: b58d7c6b
opb_in: 87d0360f
j: 1
k: 2
CDB_Data[          0]: d3666ea6
CDB_PRF_idx[          0]: 14
CDB_Data[          1]: b587c26b
CDB_PRF_idx[          1]: 04
CDB_Data[          2]: 468b618d
CDB_PRF_idx[          2]: 21
5855  0    1     b58d7c6b   1   87d0360f 1     1     0
5860  0    1     b58d7c6b   1   87d0360f 1     0     1
5865  0    0     b58d7c6b   1   87d0360f 1     0     1
CDB_valid[ 1] 1
CDB_PRF_idx[ 1] 04
CDB_valid[ 2] 1
CDB_PRF_idx[ 2] 21
5975  1    0     b58d7c6b   1   87d0360f 1     0     1
5980  1    0     b58d7c6b   1   87d0360f 1     1     0
5985  0    0     b58d7c6b   1   87d0360f 1     1     0
opa_in: 7c6e91f8
opb_in: 29c01f53
j: 2
k: 0
CDB_Data[          0]: c3be9287
CDB_PRF_idx[          0]: 3a
CDB_Data[          1]: b8760270
CDB_PRF_idx[          1]: 2b
CDB_Data[          2]: 892fc012
CDB_PRF_idx[          2]: 0c
5995  0    1     7c6e91f8   1   29c01f53 1     1     0
6000  0    1     7c6e91f8   1   29c01f53 1     0     1
6005  0    0     7c6e91f8   1   29c01f53 1     0     1
CDB_valid[ 2] 1
CDB_PRF_idx[ 2] 0c
CDB_valid[ 0] 1
CDB_PRF_idx[ 0] 3a
6245  1    0     7c6e91f8   1   29c01f53 1     0     1
6250  1    0     7c6e91f8   1   29c01f53 1     1     0
6255  0    0     7c6e91f8   1   29c01f53 1     1     0
opa_in: 1c421738
opb_in: 64f2bdc9
j: 1
k: 2
CDB_Data[          0]: 6754d7ce
CDB_PRF_idx[          0]: 07
CDB_Data[          1]: 6da36fdb
CDB_PRF_idx[          1]: 08
CDB_Data[          2]: 5ad31db5
CDB_PRF_idx[          2]: 1a
6265  0    1     1c421738   1   64f2bdc9 1     1     0
6270  0    1     1c421738   1   64f2bdc9 1     0     1
6275  0    0     1c421738   1   64f2bdc9 1     0     1
CDB_valid[ 1] 1
CDB_PRF_idx[ 1] 08
CDB_valid[ 2] 1
CDB_PRF_idx[ 2] 1a
6435  1    0     1c421738   1   64f2bdc9 1     0     1
6440  1    0     1c421738   1   64f2bdc9 1     1     0
6445  0    0     1c421738   1   64f2bdc9 1     1     0
opa_in: da8932b5
opb_in: 41aed583
j: 2
k: 0
CDB_Data[          0]: 581653b0
CDB_PRF_idx[          0]: 3b
CDB_Data[          1]: 984da630
CDB_PRF_idx[          1]: 18
CDB_Data[          2]: a36ae846
CDB_PRF_idx[          2]: 21
6455  0    1     da8932b5   1   41aed583 1     1     0
6460  0    1     da8932b5   1   41aed583 1     0     1
6465  0    0     da8932b5   1   41aed583 1     0     1
CDB_valid[ 2] 1
CDB_PRF_idx[ 2] 21
CDB_valid[ 0] 1
CDB_PRF_idx[ 0] 3b
6595  1    0     da8932b5   1   41aed583 1     0     1
6600  1    0     da8932b5   1   41aed583 1     1     0
6605  0    0     da8932b5   1   41aed583 1     1     0
opa_in: 87eec80f
opb_in: 506aefa0
j: 2
k: 0
CDB_Data[          0]: 22eadb45
CDB_PRF_idx[          0]: 37
CDB_Data[          1]: ba941075
CDB_PRF_idx[          1]: 38
CDB_Data[          2]: 3601596c
CDB_PRF_idx[          2]: 10
6615  0    1     87eec80f   1   506aefa0 1     1     0
6620  0    1     87eec80f   1   506aefa0 1     0     1
CDB_valid[ 2] 1
CDB_PRF_idx[ 2] 10
6625  0    0     87eec80f   1   506aefa0 1     0     1
CDB_valid[ 0] 1
CDB_PRF_idx[ 0] 37
6815  1    0     87eec80f   1   506aefa0 1     0     1
6820  1    0     87eec80f   1   506aefa0 1     1     0
6825  0    0     87eec80f   1   506aefa0 1     1     0
opa_in: fdeb7cfb
opb_in: 61114dc2
j: 0
k: 1
CDB_Data[          0]: 4f49019e
CDB_PRF_idx[          0]: 21
CDB_Data[          1]: df9bd0bf
CDB_PRF_idx[          1]: 11
CDB_Data[          2]: 2ca96359
CDB_PRF_idx[          2]: 3e
6835  0    1     fdeb7cfb   1   61114dc2 1     1     0
6840  0    1     fdeb7cfb   1   61114dc2 1     0     1
6845  0    0     fdeb7cfb   1   61114dc2 1     0     1
CDB_valid[ 0] 1
CDB_PRF_idx[ 0] 21
CDB_valid[ 1] 1
CDB_PRF_idx[ 1] 11
6965  1    0     fdeb7cfb   1   61114dc2 1     0     1
6970  1    0     fdeb7cfb   1   61114dc2 1     1     0
6975  0    0     fdeb7cfb   1   61114dc2 1     1     0
opa_in: 7e29b3fc
opb_in: e203f0c4
j: 0
k: 1
CDB_Data[          0]: 398a1973
CDB_PRF_idx[          0]: 1a
CDB_Data[          1]: ff73cafe
CDB_PRF_idx[          1]: 34
CDB_Data[          2]: 7132bbe2
CDB_PRF_idx[          2]: 22
6985  0    1     7e29b3fc   1   e203f0c4 1     1     0
6990  0    1     7e29b3fc   1   e203f0c4 1     0     1
CDB_valid[ 0] 1
CDB_PRF_idx[ 0] 1a
6995  0    0     7e29b3fc   1   e203f0c4 1     0     1
CDB_valid[ 1] 1
CDB_PRF_idx[ 1] 34
7175  1    0     7e29b3fc   1   e203f0c4 1     0     1
7180  1    0     7e29b3fc   1   e203f0c4 1     1     0
7185  0    0     7e29b3fc   1   e203f0c4 1     1     0
opa_in: 17a98d2f
opb_in: aae0a255
j: 0
k: 1
CDB_Data[          0]: d3fe36a7
CDB_PRF_idx[          0]: 01
CDB_Data[          1]: a0b8a241
CDB_PRF_idx[          1]: 29
CDB_Data[          2]: e69dd0cd
CDB_PRF_idx[          2]: 3f
7195  0    1     17a98d2f   1   aae0a255 1     1     0
7200  0    1     17a98d2f   1   aae0a255 1     0     1
7205  0    0     17a98d2f   1   aae0a255 1     0     1
CDB_valid[ 0] 1
CDB_PRF_idx[ 0] 01
CDB_valid[ 1] 1
CDB_PRF_idx[ 1] 29
7445  1    0     17a98d2f   1   aae0a255 1     0     1
7450  1    0     17a98d2f   1   aae0a255 1     1     0
7455  0    0     17a98d2f   1   aae0a255 1     1     0
opa_in: f5a4f2eb
opb_in: b704e26e
j: 2
k: 0
CDB_Data[          0]: 22c03145
CDB_PRF_idx[          0]: 0b
CDB_Data[          1]: 1bf8bd37
CDB_PRF_idx[          1]: 03
CDB_Data[          2]: 674fdfce
CDB_PRF_idx[          2]: 0a
7465  0    1     f5a4f2eb   1   b704e26e 1     1     0
7470  0    1     f5a4f2eb   1   b704e26e 1     0     1
7475  0    0     f5a4f2eb   1   b704e26e 1     0     1
CDB_valid[ 2] 1
CDB_PRF_idx[ 2] 0a
CDB_valid[ 0] 1
CDB_PRF_idx[ 0] 0b
7625  1    0     f5a4f2eb   1   b704e26e 1     0     1
7630  1    0     f5a4f2eb   1   b704e26e 1     1     0
7635  0    0     f5a4f2eb   1   b704e26e 1     1     0
opa_in: 3c338578
opb_in: 13d1f727
j: 2
k: 0
CDB_Data[          0]: 06499b0c
CDB_PRF_idx[          0]: 3b
CDB_Data[          1]: a4d83a49
CDB_PRF_idx[          1]: 2a
CDB_Data[          2]: 8c06d218
CDB_PRF_idx[          2]: 16
7645  0    1     3c338578   1   13d1f727 1     1     0
7650  0    1     3c338578   1   13d1f727 1     0     1
7655  0    0     3c338578   1   13d1f727 1     0     1
CDB_valid[ 2] 1
CDB_PRF_idx[ 2] 16
CDB_valid[ 0] 1
CDB_PRF_idx[ 0] 3b
7795  1    0     3c338578   1   13d1f727 1     0     1
7800  1    0     3c338578   1   13d1f727 1     1     0
7805  0    0     3c338578   1   13d1f727 1     1     0
opa_in: d6aea8ad
opb_in: 06b0e30d
j: 0
k: 1
CDB_Data[          0]: a8c6c451
CDB_PRF_idx[          0]: 04
CDB_Data[          1]: fcf504f9
CDB_PRF_idx[          1]: 06
CDB_Data[          2]: ef8d64df
CDB_PRF_idx[          2]: 09
7815  0    1     d6aea8ad   1   06b0e30d 1     1     0
7820  0    1     d6aea8ad   1   06b0e30d 1     0     1
7825  0    0     d6aea8ad   1   06b0e30d 1     0     1
CDB_valid[ 0] 1
CDB_PRF_idx[ 0] 04
CDB_valid[ 1] 1
CDB_PRF_idx[ 1] 06
7945  1    0     d6aea8ad   1   06b0e30d 1     0     1
7950  1    0     d6aea8ad   1   06b0e30d 1     1     0
7955  0    0     d6aea8ad   1   06b0e30d 1     1     0
opa_in: 5bd583b7
opb_in: 2ed66b5d
j: 0
k: 1
CDB_Data[          0]: a22ac644
CDB_PRF_idx[          0]: 1b
CDB_Data[          1]: 748abbe9
CDB_PRF_idx[          1]: 2e
CDB_Data[          2]: 632f07c6
CDB_PRF_idx[          2]: 2a
7965  0    1     5bd583b7   1   2ed66b5d 1     1     0
7970  0    1     5bd583b7   1   2ed66b5d 1     0     1
7975  0    0     5bd583b7   1   2ed66b5d 1     0     1
CDB_valid[ 0] 1
CDB_PRF_idx[ 0] 1b
CDB_valid[ 1] 1
CDB_PRF_idx[ 1] 2e
8175  1    0     5bd583b7   1   2ed66b5d 1     0     1
8180  1    0     5bd583b7   1   2ed66b5d 1     1     0
8185  0    0     5bd583b7   1   2ed66b5d 1     1     0
opa_in: ebb0f6d7
opb_in: 26c7134d
j: 0
k: 1
CDB_Data[          0]: a703744e
CDB_PRF_idx[          0]: 39
CDB_Data[          1]: 9cd6c239
CDB_PRF_idx[          1]: 01
CDB_Data[          2]: 47ebef8f
CDB_PRF_idx[          2]: 3e
8195  0    1     ebb0f6d7   1   26c7134d 1     1     0
8200  0    1     ebb0f6d7   1   26c7134d 1     0     1
8205  0    0     ebb0f6d7   1   26c7134d 1     0     1
CDB_valid[ 0] 1
CDB_PRF_idx[ 0] 39
CDB_valid[ 1] 1
CDB_PRF_idx[ 1] 01
8385  1    0     ebb0f6d7   1   26c7134d 1     0     1
8390  1    0     ebb0f6d7   1   26c7134d 1     1     0
8395  0    0     ebb0f6d7   1   26c7134d 1     1     0
opa_in: ab37a856
opb_in: e99b1cd3
j: 1
k: 2
CDB_Data[          0]: 560d5fac
CDB_PRF_idx[          0]: 28
CDB_Data[          1]: d03c40a0
CDB_PRF_idx[          1]: 1d
CDB_Data[          2]: 006d0f00
CDB_PRF_idx[          2]: 1a
8405  0    1     ab37a856   1   e99b1cd3 1     1     0
8410  0    1     ab37a856   1   e99b1cd3 1     0     1
8415  0    0     ab37a856   1   e99b1cd3 1     0     1
CDB_valid[ 1] 1
CDB_PRF_idx[ 1] 1d
CDB_valid[ 2] 1
CDB_PRF_idx[ 2] 1a
8525  1    0     ab37a856   1   e99b1cd3 1     0     1
8530  1    0     ab37a856   1   e99b1cd3 1     1     0
