program.out
Chronologic VCS simulator copyright 1991-2017
Contains Synopsys proprietary information.
Compiler version N-2017.12-SP2-1_Full64; Runtime version N-2017.12-SP2-1_Full64;  Apr  8 20:57 2020
VCD+ Writer N-2017.12-SP2-1_Full64 Copyright (c) 1991-2017 by Synopsys Inc.
@@
@@
@@                     0  Asserting System reset......
@@
@@                     0 : System STILL at reset, can't show anything
@@
time:    0 if_valid_inst_out: xxx id_valid_inst_out: xxx id_IR_out[0]: xxxxxxxx rs_valid_inst_out:000 ex_valid_inst_out: 000
time:    5
except in id_stage: 0
occupied_hub:xxx
time:    6 if_valid_inst_out: 000 id_valid_inst_out: 000 id_IR_out[0]: xxxxxxxx rs_valid_inst_out:000 ex_valid_inst_out: 000
@@
@@                   100 : System STILL at reset, can't show anything
@@
time:   15
except in id_stage: 0
occupied_hub:000
time:   15 if_valid_inst_out: 000 id_valid_inst_out: 000 id_IR_out[0]: 00000000 rs_valid_inst_out:000 ex_valid_inst_out: 000
@@
@@                   200 : System STILL at reset, can't show anything
@@
time:   25
except in id_stage: 0
occupied_hub:000
@@
@@                   300 : System STILL at reset, can't show anything
@@
time:   35
except in id_stage: 0
occupied_hub:000
@@                   360  Deasserting System reset......
@@
@@
time:   45
except in id_stage: 0
occupied_hub:000
time:   55
except in id_stage: 0
occupied_hub:000
time:   65
except in id_stage: 0
occupied_hub:000
time:   75
except in id_stage: 0
occupied_hub:000
time:   85
except in id_stage: 0
occupied_hub:000
time:   95
except in id_stage: 0
occupied_hub:000
time:  105
except in id_stage: 0
occupied_hub:000
time:  115
except in id_stage: 0
occupied_hub:000
time:  125
except in id_stage: 0
occupied_hub:000
time:  135
except in id_stage: 0
occupied_hub:000
time:  145
except in id_stage: 0
occupied_hub:000
time:  145 if_valid_inst_out: 000 id_valid_inst_out: 000 id_IR_out[0]: 00800113 rs_valid_inst_out:000 ex_valid_inst_out: 000
time:  155
except in id_stage: 0
occupied_hub:000
time:  165
except in id_stage: 0
occupied_hub:000
time:  175
except in id_stage: 0
occupied_hub:000
time:  185
except in id_stage: 0
occupied_hub:000
time:  195
except in id_stage: 0
occupied_hub:000
time:  205
except in id_stage: 0
occupied_hub:000
time:  215
except in id_stage: 0
occupied_hub:000
time:  225
except in id_stage: 0
occupied_hub:000
time:  235
except in id_stage: 0
occupied_hub:000
time:  245
except in id_stage: 0
occupied_hub:000
time:  255
except in id_stage: 0
occupied_hub:000
time:  255 if_valid_inst_out: 111 id_valid_inst_out: 111 id_IR_out[0]: 00800113 rs_valid_inst_out:000 ex_valid_inst_out: 000
time:  265
except in id_stage: 0
inst:00800113
opa_arn:  0 opb_arn:  8 dest_arn:  2
opa_prn:  0 opb_prn:  8 dest_prn: 63
opa_value[i]:          0 opb_value[i]:          0
rs1_value:          0 rs2_value:          0
opa_valid: 1 opb_valid: 1
inst:000021b7
opa_arn:  0 opb_arn:  0 dest_arn:  3
opa_prn:  0 opb_prn:  0 dest_prn: 32
opa_value[i]:          0 opb_value[i]:          0
rs1_value:          0 rs2_value:          0
opa_valid: 1 opb_valid: 1
inst:7bb18193
opa_arn:  3 opb_arn: 27 dest_arn:  3
opa_prn: 32 opb_prn: 27 dest_prn: 62
opa_value[i]:          0 opb_value[i]:          0
rs1_value:         32 rs2_value:          x
opa_valid: 0 opb_valid: 1
occupied_hub:000
time:  266 if_valid_inst_out: 000 id_valid_inst_out: 000 id_IR_out[0]: 01019193 rs_valid_inst_out:000 ex_valid_inst_out: 000
time:  275
except in id_stage: 0
occupied_hub:000
time:  276 if_valid_inst_out: 000 id_valid_inst_out: 000 id_IR_out[0]: 01019193 rs_valid_inst_out:011 ex_valid_inst_out: 011
time:  285
except in id_stage: 0
occupied_hub:000
inst:00800113
PRF_idx:63
result:00000008
inst:000021b7
PRF_idx:32
result:00002000
time:  286 if_valid_inst_out: 000 id_valid_inst_out: 000 id_IR_out[0]: 01019193 rs_valid_inst_out:001 ex_valid_inst_out: 001
time:  295
except in id_stage: 0
occupied_hub:000
inst:7bb18193
PRF_idx:62
result:000027bb
time:  296 if_valid_inst_out: 000 id_valid_inst_out: 000 id_IR_out[0]: 01019193 rs_valid_inst_out:000 ex_valid_inst_out: 000
time:  305
except in id_stage: 0
occupied_hub:000
time:  315
except in id_stage: 0
occupied_hub:000
time:  325
except in id_stage: 0
occupied_hub:000
time:  335
except in id_stage: 0
occupied_hub:000
time:  345
except in id_stage: 0
occupied_hub:000
time:  355
except in id_stage: 0
occupied_hub:000
time:  365
except in id_stage: 0
occupied_hub:000
time:  375
except in id_stage: 0
occupied_hub:000
time:  375 if_valid_inst_out: 111 id_valid_inst_out: 111 id_IR_out[0]: 01019193 rs_valid_inst_out:000 ex_valid_inst_out: 000
time:  385
except in id_stage: 0
inst:01019193
opa_arn:  3 opb_arn: 16 dest_arn:  3
opa_prn: 62 opb_prn: 16 dest_prn: 61
opa_value[i]:      10171 opb_value[i]:          0
rs1_value:      10171 rs2_value:          0
opa_valid: 1 opb_valid: 1
inst:000030b7
opa_arn:  0 opb_arn:  0 dest_arn:  1
opa_prn:  0 opb_prn:  0 dest_prn:  2
opa_value[i]:          0 opb_value[i]:          0
rs1_value:          X rs2_value:          0
opa_valid: 1 opb_valid: 1
inst:ee608093
opa_arn:  1 opb_arn:  6 dest_arn:  1
opa_prn:  2 opb_prn:  6 dest_prn: 60
opa_value[i]:          0 opb_value[i]:          0
rs1_value:          2 rs2_value:          x
opa_valid: 0 opb_valid: 1
occupied_hub:000
time:  386 if_valid_inst_out: 000 id_valid_inst_out: 000 id_IR_out[0]: xxxxxxxx rs_valid_inst_out:000 ex_valid_inst_out: 000
time:  395
except in id_stage: 0
occupied_hub:000
time:  396 if_valid_inst_out: 000 id_valid_inst_out: 000 id_IR_out[0]: xxxxxxxx rs_valid_inst_out:011 ex_valid_inst_out: 011
time:  405
except in id_stage: 0
occupied_hub:000
inst:01019193
PRF_idx:61
result:27bb0000
inst:000030b7
PRF_idx: 2
result:00003000
time:  406 if_valid_inst_out: 000 id_valid_inst_out: 000 id_IR_out[0]: xxxxxxxx rs_valid_inst_out:001 ex_valid_inst_out: 001
time:  415
except in id_stage: 0
occupied_hub:000
inst:ee608093
PRF_idx:60
result:00002ee6
time:  416 if_valid_inst_out: 000 id_valid_inst_out: 000 id_IR_out[0]: xxxxxxxx rs_valid_inst_out:000 ex_valid_inst_out: 000
time:  425
except in id_stage: 0
occupied_hub:000
time:  435
except in id_stage: 0
occupied_hub:000
time:  445
except in id_stage: 0
occupied_hub:000
time:  455
except in id_stage: 0
occupied_hub:000
time:  465
except in id_stage: 0
occupied_hub:000
time:  475
except in id_stage: 0
occupied_hub:000
time:  485
except in id_stage: 0
occupied_hub:000
time:  495
except in id_stage: 0
occupied_hub:000
time:  495 if_valid_inst_out: 000 id_valid_inst_out: 000 id_IR_out[0]: 0011e1b3 rs_valid_inst_out:000 ex_valid_inst_out: 000
time:  505
except in id_stage: 0
occupied_hub:000
time:  515
except in id_stage: 0
occupied_hub:000
time:  525
except in id_stage: 0
occupied_hub:000
time:  535
except in id_stage: 0
occupied_hub:000
time:  545
except in id_stage: 0
occupied_hub:000
time:  555
except in id_stage: 0
occupied_hub:000
time:  565
except in id_stage: 0
occupied_hub:000
time:  575
except in id_stage: 0
occupied_hub:000
time:  585
except in id_stage: 0
occupied_hub:000
time:  595
except in id_stage: 0
occupied_hub:000
time:  605
except in id_stage: 0
occupied_hub:000
time:  605 if_valid_inst_out: 111 id_valid_inst_out: 111 id_IR_out[0]: 0011e1b3 rs_valid_inst_out:000 ex_valid_inst_out: 000
time:  615
except in id_stage: 0
inst:0011e1b3
opa_arn:  3 opb_arn:  1 dest_arn:  3
opa_prn: 61 opb_prn: 60 dest_prn: 62
opa_value[i]:  666566656 opb_value[i]:      12006
rs1_value:  666566656 rs2_value:      12006
opa_valid: 1 opb_valid: 1
inst:000010b7
opa_arn:  0 opb_arn:  0 dest_arn:  1
opa_prn:  0 opb_prn:  0 dest_prn:  1
opa_value[i]:          0 opb_value[i]:          0
rs1_value:          0 rs2_value:          0
opa_valid: 1 opb_valid: 1
inst:87b08093
opa_arn:  1 opb_arn: 27 dest_arn:  1
opa_prn:  1 opb_prn: 27 dest_prn: 59
opa_value[i]:          0 opb_value[i]:          0
rs1_value:          1 rs2_value:          x
opa_valid: 0 opb_valid: 1
occupied_hub:000
time:  616 if_valid_inst_out: 000 id_valid_inst_out: 000 id_IR_out[0]: 00c19193 rs_valid_inst_out:000 ex_valid_inst_out: 000
time:  625
except in id_stage: 0
occupied_hub:000
time:  626 if_valid_inst_out: 000 id_valid_inst_out: 000 id_IR_out[0]: 00c19193 rs_valid_inst_out:011 ex_valid_inst_out: 011
time:  635
except in id_stage: 0
occupied_hub:000
inst:0011e1b3
PRF_idx:62
result:27bb2ee6
inst:000010b7
PRF_idx: 1
result:00001000
time:  636 if_valid_inst_out: 000 id_valid_inst_out: 000 id_IR_out[0]: 00c19193 rs_valid_inst_out:001 ex_valid_inst_out: 001
time:  645
except in id_stage: 0
occupied_hub:000
inst:87b08093
PRF_idx:59
result:0000087b
time:  646 if_valid_inst_out: 000 id_valid_inst_out: 000 id_IR_out[0]: 00c19193 rs_valid_inst_out:000 ex_valid_inst_out: 000
time:  655
except in id_stage: 0
occupied_hub:000
time:  665
except in id_stage: 0
occupied_hub:000
time:  675
except in id_stage: 0
occupied_hub:000
time:  685
except in id_stage: 0
occupied_hub:000
time:  695
except in id_stage: 0
occupied_hub:000
time:  705
except in id_stage: 0
occupied_hub:000
time:  715
except in id_stage: 0
occupied_hub:000
time:  725
except in id_stage: 0
occupied_hub:000
time:  725 if_valid_inst_out: 111 id_valid_inst_out: 111 id_IR_out[0]: 00c19193 rs_valid_inst_out:000 ex_valid_inst_out: 000
time:  735
except in id_stage: 0
inst:00c19193
opa_arn:  3 opb_arn: 12 dest_arn:  3
opa_prn: 62 opb_prn: 12 dest_prn: 61
opa_value[i]:  666578662 opb_value[i]:          0
rs1_value:  666578662 rs2_value:          0
opa_valid: 1 opb_valid: 1
inst:0011e1b3
opa_arn:  3 opb_arn:  1 dest_arn:  3
opa_prn: 61 opb_prn: 59 dest_prn:  1
opa_value[i]:  666566656 opb_value[i]:       2171
rs1_value:         61 rs2_value:       2171
opa_valid: 0 opb_valid: 1
inst:0b000093
opa_arn:  0 opb_arn: 16 dest_arn:  1
opa_prn:  0 opb_prn: 16 dest_prn: 60
opa_value[i]:          0 opb_value[i]:          0
rs1_value:          0 rs2_value:          x
opa_valid: 1 opb_valid: 1
occupied_hub:000
time:  736 if_valid_inst_out: 000 id_valid_inst_out: 000 id_IR_out[0]: xxxxxxxx rs_valid_inst_out:000 ex_valid_inst_out: 000
time:  745
except in id_stage: 0
occupied_hub:000
time:  746 if_valid_inst_out: 000 id_valid_inst_out: 000 id_IR_out[0]: xxxxxxxx rs_valid_inst_out:011 ex_valid_inst_out: 011
time:  755
except in id_stage: 0
occupied_hub:000
inst:00c19193
PRF_idx:61
result:b2ee6000
inst:0b000093
PRF_idx:60
result:000000b0
time:  756 if_valid_inst_out: 000 id_valid_inst_out: 000 id_IR_out[0]: xxxxxxxx rs_valid_inst_out:001 ex_valid_inst_out: 001
time:  765
except in id_stage: 0
occupied_hub:000
inst:0011e1b3
PRF_idx: 1
result:b2ee687b
time:  766 if_valid_inst_out: 000 id_valid_inst_out: 000 id_IR_out[0]: xxxxxxxx rs_valid_inst_out:000 ex_valid_inst_out: 000
time:  775
except in id_stage: 0
occupied_hub:000
time:  785
except in id_stage: 0
occupied_hub:000
time:  795
except in id_stage: 0
occupied_hub:000
time:  805
except in id_stage: 0
occupied_hub:000
time:  815
except in id_stage: 0
occupied_hub:000
time:  825
except in id_stage: 0
occupied_hub:000
time:  835
except in id_stage: 0
occupied_hub:000
time:  845
except in id_stage: 0
occupied_hub:000
time:  845 if_valid_inst_out: 000 id_valid_inst_out: 000 id_IR_out[0]: 00c19193 rs_valid_inst_out:000 ex_valid_inst_out: 000
time:  855
except in id_stage: 0
occupied_hub:000
time:  865
except in id_stage: 0
occupied_hub:000
time:  875
except in id_stage: 0
occupied_hub:000
time:  885
except in id_stage: 0
occupied_hub:000
time:  895
except in id_stage: 0
occupied_hub:000
time:  905
except in id_stage: 0
occupied_hub:000
time:  915
except in id_stage: 0
occupied_hub:000
time:  925
except in id_stage: 0
occupied_hub:000
time:  935
except in id_stage: 0
occupied_hub:000
time:  945
except in id_stage: 0
occupied_hub:000
time:  955
except in id_stage: 0
occupied_hub:000
time:  955 if_valid_inst_out: 111 id_valid_inst_out: 111 id_IR_out[0]: 00c19193 rs_valid_inst_out:000 ex_valid_inst_out: 000
time:  965
except in id_stage: 0
inst:00c19193
opa_arn:  3 opb_arn: 12 dest_arn:  3
opa_prn:  1 opb_prn: 12 dest_prn: 62
opa_value[i]: 3001968763 opb_value[i]:          0
rs1_value: 3001968763 rs2_value:          0
opa_valid: 1 opb_valid: 1
inst:0011e1b3
opa_arn:  3 opb_arn:  1 dest_arn:  3
opa_prn: 62 opb_prn: 60 dest_prn:  2
opa_value[i]:  666578662 opb_value[i]:        176
rs1_value:         62 rs2_value:        176
opa_valid: 0 opb_valid: 1
inst:0fd00093
opa_arn:  0 opb_arn: 29 dest_arn:  1
opa_prn:  0 opb_prn: 29 dest_prn: 61
opa_value[i]:          0 opb_value[i]:          0
rs1_value:          0 rs2_value:          x
opa_valid: 1 opb_valid: 1
occupied_hub:000
time:  966 if_valid_inst_out: 000 id_valid_inst_out: 000 id_IR_out[0]: 00819193 rs_valid_inst_out:000 ex_valid_inst_out: 000
time:  975
except in id_stage: 0
occupied_hub:000
time:  976 if_valid_inst_out: 000 id_valid_inst_out: 000 id_IR_out[0]: 00819193 rs_valid_inst_out:011 ex_valid_inst_out: 011
time:  985
except in id_stage: 0
occupied_hub:000
inst:00c19193
PRF_idx:62
result:e687b000
inst:0fd00093
PRF_idx:61
result:000000fd
time:  986 if_valid_inst_out: 000 id_valid_inst_out: 000 id_IR_out[0]: 00819193 rs_valid_inst_out:001 ex_valid_inst_out: 001
time:  995
except in id_stage: 0
occupied_hub:000
inst:0011e1b3
PRF_idx: 2
result:e687b0b0
time:  996 if_valid_inst_out: 000 id_valid_inst_out: 000 id_IR_out[0]: 00819193 rs_valid_inst_out:000 ex_valid_inst_out: 000
time: 1005
except in id_stage: 0
occupied_hub:000
time: 1015
except in id_stage: 0
occupied_hub:000
time: 1025
except in id_stage: 0
occupied_hub:000
time: 1035
except in id_stage: 0
occupied_hub:000
time: 1045
except in id_stage: 0
occupied_hub:000
time: 1055
except in id_stage: 0
occupied_hub:000
time: 1065
except in id_stage: 0
occupied_hub:000
time: 1075
except in id_stage: 0
occupied_hub:000
time: 1075 if_valid_inst_out: 111 id_valid_inst_out: 111 id_IR_out[0]: 00819193 rs_valid_inst_out:000 ex_valid_inst_out: 000
time: 1085
except in id_stage: 0
inst:00819193
opa_arn:  3 opb_arn:  8 dest_arn:  3
opa_prn:  2 opb_prn:  8 dest_prn: 62
opa_value[i]: 3867652272 opb_value[i]:          0
rs1_value: 3867652272 rs2_value:          0
opa_valid: 1 opb_valid: 1
inst:0011e1b3
opa_arn:  3 opb_arn:  1 dest_arn:  3
opa_prn: 62 opb_prn: 61 dest_prn:  1
opa_value[i]: 3867652096 opb_value[i]:        253
rs1_value:         62 rs2_value:        253
opa_valid: 0 opb_valid: 1
inst:00001237
opa_arn:  0 opb_arn:  0 dest_arn:  4
opa_prn:  0 opb_prn:  0 dest_prn: 60
opa_value[i]:          0 opb_value[i]:          0
rs1_value:          X rs2_value:          0
opa_valid: 1 opb_valid: 1
occupied_hub:000
time: 1086 if_valid_inst_out: 000 id_valid_inst_out: 000 id_IR_out[0]: xxxxxxxx rs_valid_inst_out:000 ex_valid_inst_out: 000
time: 1095
except in id_stage: 0
occupied_hub:000
time: 1096 if_valid_inst_out: 000 id_valid_inst_out: 000 id_IR_out[0]: xxxxxxxx rs_valid_inst_out:011 ex_valid_inst_out: 011
time: 1105
except in id_stage: 0
occupied_hub:000
inst:00819193
PRF_idx:62
result:87b0b000
inst:00001237
PRF_idx:60
result:00001000
time: 1106 if_valid_inst_out: 000 id_valid_inst_out: 000 id_IR_out[0]: xxxxxxxx rs_valid_inst_out:001 ex_valid_inst_out: 001
time: 1115
except in id_stage: 0
occupied_hub:000
inst:0011e1b3
PRF_idx: 1
result:87b0b0fd
time: 1116 if_valid_inst_out: 000 id_valid_inst_out: 000 id_IR_out[0]: xxxxxxxx rs_valid_inst_out:000 ex_valid_inst_out: 000
time: 1125
except in id_stage: 0
occupied_hub:000
time: 1135
except in id_stage: 0
occupied_hub:000
time: 1145
except in id_stage: 0
occupied_hub:000
time: 1155
except in id_stage: 0
occupied_hub:000
time: 1165
except in id_stage: 0
occupied_hub:000
time: 1175
except in id_stage: 0
occupied_hub:000
time: 1185
except in id_stage: 0
occupied_hub:000
time: 1195
except in id_stage: 0
occupied_hub:000
time: 1195 if_valid_inst_out: 000 id_valid_inst_out: 000 id_IR_out[0]: b5020213 rs_valid_inst_out:000 ex_valid_inst_out: 000
time: 1205
except in id_stage: 0
occupied_hub:000
time: 1215
except in id_stage: 0
occupied_hub:000
time: 1225
except in id_stage: 0
occupied_hub:000
time: 1235
except in id_stage: 0
occupied_hub:000
time: 1245
except in id_stage: 0
occupied_hub:000
time: 1255
except in id_stage: 0
occupied_hub:000
time: 1265
except in id_stage: 0
occupied_hub:000
time: 1275
except in id_stage: 0
occupied_hub:000
time: 1285
except in id_stage: 0
occupied_hub:000
time: 1295
except in id_stage: 0
occupied_hub:000
time: 1305
except in id_stage: 0
occupied_hub:000
time: 1305 if_valid_inst_out: 111 id_valid_inst_out: 111 id_IR_out[0]: b5020213 rs_valid_inst_out:000 ex_valid_inst_out: 000
time: 1315
except in id_stage: 0
inst:b5020213
opa_arn:  4 opb_arn: 16 dest_arn:  4
opa_prn: 60 opb_prn: 16 dest_prn: 62
opa_value[i]:       4096 opb_value[i]:          0
rs1_value:       4096 rs2_value:          0
opa_valid: 1 opb_valid: 1
inst:00c21213
opa_arn:  4 opb_arn: 12 dest_arn:  4
opa_prn: 62 opb_prn: 12 dest_prn:  2
opa_value[i]: 2276503552 opb_value[i]:          0
rs1_value:         62 rs2_value:          0
opa_valid: 0 opb_valid: 1
inst:4f300093
opa_arn:  0 opb_arn: 19 dest_arn:  1
opa_prn:  0 opb_prn: 19 dest_prn: 59
opa_value[i]:          0 opb_value[i]:          0
rs1_value:          0 rs2_value:          x
opa_valid: 1 opb_valid: 1
occupied_hub:000
time: 1316 if_valid_inst_out: 000 id_valid_inst_out: 000 id_IR_out[0]: 00126233 rs_valid_inst_out:000 ex_valid_inst_out: 000
time: 1325
except in id_stage: 0
occupied_hub:000
time: 1326 if_valid_inst_out: 000 id_valid_inst_out: 000 id_IR_out[0]: 00126233 rs_valid_inst_out:011 ex_valid_inst_out: 011
time: 1335
except in id_stage: 0
occupied_hub:000
inst:b5020213
PRF_idx:62
result:00000b50
inst:4f300093
PRF_idx:59
result:000004f3
time: 1336 if_valid_inst_out: 000 id_valid_inst_out: 000 id_IR_out[0]: 00126233 rs_valid_inst_out:001 ex_valid_inst_out: 001
time: 1345
except in id_stage: 0
occupied_hub:000
inst:00c21213
PRF_idx: 2
result:00b50000
time: 1346 if_valid_inst_out: 000 id_valid_inst_out: 000 id_IR_out[0]: 00126233 rs_valid_inst_out:000 ex_valid_inst_out: 000
time: 1355
except in id_stage: 0
occupied_hub:000
time: 1365
except in id_stage: 0
occupied_hub:000
time: 1375
except in id_stage: 0
occupied_hub:000
time: 1385
except in id_stage: 0
occupied_hub:000
time: 1395
except in id_stage: 0
occupied_hub:000
time: 1405
except in id_stage: 0
occupied_hub:000
time: 1415
except in id_stage: 0
occupied_hub:000
time: 1425
except in id_stage: 0
occupied_hub:000
time: 1425 if_valid_inst_out: 111 id_valid_inst_out: 111 id_IR_out[0]: 00126233 rs_valid_inst_out:000 ex_valid_inst_out: 000
time: 1435
except in id_stage: 0
inst:00126233
opa_arn:  4 opb_arn:  1 dest_arn:  4
opa_prn:  2 opb_prn: 59 dest_prn: 62
opa_value[i]:   11862016 opb_value[i]:       1267
rs1_value:   11862016 rs2_value:       1267
opa_valid: 1 opb_valid: 1
inst:02d00093
opa_arn:  0 opb_arn: 13 dest_arn:  1
opa_prn:  0 opb_prn: 13 dest_prn:  3
opa_value[i]:          0 opb_value[i]:          0
rs1_value:          0 rs2_value:          x
opa_valid: 1 opb_valid: 1
inst:00421213
opa_arn:  4 opb_arn:  4 dest_arn:  4
opa_prn: 62 opb_prn: 62 dest_prn: 61
opa_value[i]:       2896 opb_value[i]:       2896
rs1_value:         62 rs2_value:         62
opa_valid: 0 opb_valid: 1
occupied_hub:000
time: 1436 if_valid_inst_out: 000 id_valid_inst_out: 000 id_IR_out[0]: xxxxxxxx rs_valid_inst_out:000 ex_valid_inst_out: 000
time: 1445
except in id_stage: 0
occupied_hub:000
time: 1446 if_valid_inst_out: 000 id_valid_inst_out: 000 id_IR_out[0]: xxxxxxxx rs_valid_inst_out:011 ex_valid_inst_out: 011
time: 1455
except in id_stage: 0
occupied_hub:000
inst:00126233
PRF_idx:62
result:00b504f3
inst:02d00093
PRF_idx: 3
result:0000002d
time: 1456 if_valid_inst_out: 000 id_valid_inst_out: 000 id_IR_out[0]: xxxxxxxx rs_valid_inst_out:001 ex_valid_inst_out: 001
time: 1465
except in id_stage: 0
occupied_hub:000
inst:00421213
PRF_idx:61
result:0b504f30
time: 1466 if_valid_inst_out: 000 id_valid_inst_out: 000 id_IR_out[0]: xxxxxxxx rs_valid_inst_out:000 ex_valid_inst_out: 000
time: 1475
except in id_stage: 0
occupied_hub:000
time: 1485
except in id_stage: 0
occupied_hub:000
time: 1495
except in id_stage: 0
occupied_hub:000
time: 1505
except in id_stage: 0
occupied_hub:000
time: 1515
except in id_stage: 0
occupied_hub:000
time: 1525
except in id_stage: 0
occupied_hub:000
time: 1535
except in id_stage: 0
occupied_hub:000
time: 1545
except in id_stage: 0
occupied_hub:000
time: 1545 if_valid_inst_out: 000 id_valid_inst_out: 000 id_IR_out[0]: 00126233 rs_valid_inst_out:000 ex_valid_inst_out: 000
time: 1555
except in id_stage: 0
occupied_hub:000
time: 1565
except in id_stage: 0
occupied_hub:000
time: 1575
except in id_stage: 0
occupied_hub:000
time: 1585
except in id_stage: 0
occupied_hub:000
time: 1595
except in id_stage: 0
occupied_hub:000
time: 1605
except in id_stage: 0
occupied_hub:000
time: 1615
except in id_stage: 0
occupied_hub:000
time: 1625
except in id_stage: 0
occupied_hub:000
time: 1635
except in id_stage: 0
occupied_hub:000
time: 1645
except in id_stage: 0
occupied_hub:000
time: 1655
except in id_stage: 0
occupied_hub:000
time: 1655 if_valid_inst_out: 111 id_valid_inst_out: 111 id_IR_out[0]: 00126233 rs_valid_inst_out:000 ex_valid_inst_out: 000
time: 1665
except in id_stage: 0
inst:00126233
opa_arn:  4 opb_arn:  1 dest_arn:  4
opa_prn: 61 opb_prn:  3 dest_prn: 62
opa_value[i]:  189812528 opb_value[i]:         45
rs1_value:  189812528 rs2_value:         45
opa_valid: 1 opb_valid: 1
inst:00000293
opa_arn:  0 opb_arn:  0 dest_arn:  5
opa_prn:  0 opb_prn:  0 dest_prn:  2
opa_value[i]:          0 opb_value[i]:          0
rs1_value:          0 rs2_value:          0
opa_valid: 1 opb_valid: 1
inst:00128293
opa_arn:  5 opb_arn:  1 dest_arn:  5
opa_prn:  2 opb_prn:  3 dest_prn: 60
opa_value[i]:   11862016 opb_value[i]:         45
rs1_value:          2 rs2_value:          x
opa_valid: 0 opb_valid: 1
occupied_hub:000
time: 1666 if_valid_inst_out: 000 id_valid_inst_out: 000 id_IR_out[0]: 0102a313 rs_valid_inst_out:000 ex_valid_inst_out: 000
time: 1675
except in id_stage: 0
occupied_hub:000
time: 1676 if_valid_inst_out: 000 id_valid_inst_out: 000 id_IR_out[0]: 0102a313 rs_valid_inst_out:011 ex_valid_inst_out: 011
time: 1685
except in id_stage: 0
occupied_hub:000
inst:00126233
PRF_idx:62
result:0b504f3d
inst:00000293
PRF_idx: 2
result:00000000
time: 1686 if_valid_inst_out: 000 id_valid_inst_out: 000 id_IR_out[0]: 0102a313 rs_valid_inst_out:001 ex_valid_inst_out: 001
time: 1695
except in id_stage: 0
occupied_hub:000
inst:00128293
PRF_idx:60
result:00000001
time: 1696 if_valid_inst_out: 000 id_valid_inst_out: 000 id_IR_out[0]: 0102a313 rs_valid_inst_out:000 ex_valid_inst_out: 000
time: 1705
except in id_stage: 0
occupied_hub:000
time: 1715
except in id_stage: 0
occupied_hub:000
time: 1725
except in id_stage: 0
occupied_hub:000
time: 1735
except in id_stage: 0
occupied_hub:000
time: 1745
except in id_stage: 0
occupied_hub:000
time: 1755
except in id_stage: 0
occupied_hub:000
time: 1765
except in id_stage: 0
occupied_hub:000
time: 1775
except in id_stage: 0
occupied_hub:000
time: 1775 if_valid_inst_out: 111 id_valid_inst_out: 111 id_IR_out[0]: 0102a313 rs_valid_inst_out:000 ex_valid_inst_out: 000
time: 1785
except in id_stage: 0
inst:0102a313
opa_arn:  5 opb_arn: 16 dest_arn:  6
opa_prn: 60 opb_prn: 16 dest_prn: 61
opa_value[i]:          1 opb_value[i]:          0
rs1_value:          1 rs2_value:          0
opa_valid: 1 opb_valid: 1
inst:023105b3
opa_arn:  2 opb_arn:  3 dest_arn: 11
opa_prn: 63 opb_prn:  1 dest_prn:  2
opa_value[i]:          8 opb_value[i]: 2276503805
rs1_value:          8 rs2_value: 2276503805
opa_valid: 1 opb_valid: 1
inst:004585b3
opa_arn: 11 opb_arn:  4 dest_arn: 11
opa_prn:  2 opb_prn: 62 dest_prn: 59
opa_value[i]:          0 opb_value[i]:  189812541
rs1_value:          2 rs2_value:  189812541
opa_valid: 0 opb_valid: 1
occupied_hub:000
time: 1786 if_valid_inst_out: 000 id_valid_inst_out: 000 id_IR_out[0]: xxxxxxxx rs_valid_inst_out:000 ex_valid_inst_out: 000
time: 1795
except in id_stage: 0
occupied_hub:000
time: 1796 if_valid_inst_out: 000 id_valid_inst_out: 000 id_IR_out[0]: xxxxxxxx rs_valid_inst_out:011 ex_valid_inst_out: 001
time: 1805
except in id_stage: 0
occupied_hub:000
inst:0102a313
PRF_idx:61
result:00000001
time: 1806 if_valid_inst_out: 000 id_valid_inst_out: 000 id_IR_out[0]: xxxxxxxx rs_valid_inst_out:000 ex_valid_inst_out: 000
time: 1815
except in id_stage: 0
occupied_hub:010
time: 1825
except in id_stage: 0
occupied_hub:010
time: 1835
except in id_stage: 0
occupied_hub:010
time: 1835 if_valid_inst_out: 000 id_valid_inst_out: 000 id_IR_out[0]: xxxxxxxx rs_valid_inst_out:000 ex_valid_inst_out: 010
time: 1845
except in id_stage: 0
occupied_hub:010
inst:023105b3
PRF_idx: 2
result:3d8587e8
time: 1845 if_valid_inst_out: 000 id_valid_inst_out: 000 id_IR_out[0]: xxxxxxxx rs_valid_inst_out:000 ex_valid_inst_out: 000
time: 1846 if_valid_inst_out: 000 id_valid_inst_out: 000 id_IR_out[0]: xxxxxxxx rs_valid_inst_out:001 ex_valid_inst_out: 001
time: 1855
except in id_stage: 0
occupied_hub:000
inst:004585b3
PRF_idx:59
result:48d5d725
time: 1856 if_valid_inst_out: 000 id_valid_inst_out: 000 id_IR_out[0]: xxxxxxxx rs_valid_inst_out:000 ex_valid_inst_out: 000
time: 1865
except in id_stage: 0
occupied_hub:000
time: 1875
except in id_stage: 0
occupied_hub:000
time: 1885
except in id_stage: 0
occupied_hub:000
time: 1895
except in id_stage: 0
occupied_hub:000
time: 1895 if_valid_inst_out: 000 id_valid_inst_out: 000 id_IR_out[0]: 02358633 rs_valid_inst_out:000 ex_valid_inst_out: 000
time: 1905
except in id_stage: 0
occupied_hub:000
time: 1915
except in id_stage: 0
occupied_hub:000
time: 1925
except in id_stage: 0
occupied_hub:000
time: 1935
except in id_stage: 0
occupied_hub:000
time: 1945
except in id_stage: 0
occupied_hub:000
time: 1955
except in id_stage: 0
occupied_hub:000
time: 1965
except in id_stage: 0
occupied_hub:000
time: 1975
except in id_stage: 0
occupied_hub:000
time: 1985
except in id_stage: 0
occupied_hub:000
time: 1995
except in id_stage: 0
occupied_hub:000
time: 2005
except in id_stage: 0
occupied_hub:000
time: 2005 if_valid_inst_out: 111 id_valid_inst_out: 111 id_IR_out[0]: 02358633 rs_valid_inst_out:000 ex_valid_inst_out: 000
time: 2015
except in id_stage: 0
inst:02358633
opa_arn: 11 opb_arn:  3 dest_arn: 12
opa_prn: 59 opb_prn:  1 dest_prn: 58
opa_value[i]: 1221973797 opb_value[i]: 2276503805
rs1_value: 1221973797 rs2_value: 2276503805
opa_valid: 1 opb_valid: 1
inst:00460633
opa_arn: 12 opb_arn:  4 dest_arn: 12
opa_prn: 58 opb_prn: 62 dest_prn:  2
opa_value[i]:          0 opb_value[i]:  189812541
rs1_value:         58 rs2_value:  189812541
opa_valid: 0 opb_valid: 1
inst:023606b3
opa_arn: 12 opb_arn:  3 dest_arn: 13
opa_prn:  2 opb_prn:  1 dest_prn: 57
opa_value[i]: 1032161256 opb_value[i]: 2276503805
rs1_value:          2 rs2_value: 2276503805
opa_valid: 0 opb_valid: 1
occupied_hub:000
time: 2016 if_valid_inst_out: 000 id_valid_inst_out: 000 id_IR_out[0]: 004686b3 rs_valid_inst_out:000 ex_valid_inst_out: 000
time: 2025
except in id_stage: 0
occupied_hub:000
time: 2026 if_valid_inst_out: 000 id_valid_inst_out: 000 id_IR_out[0]: 004686b3 rs_valid_inst_out:001 ex_valid_inst_out: 000
time: 2035
except in id_stage: 0
occupied_hub:000
