program.out
Chronologic VCS simulator copyright 1991-2017
Contains Synopsys proprietary information.
Compiler version N-2017.12-SP2-1_Full64; Runtime version N-2017.12-SP2-1_Full64;  Apr 13 18:51 2020
VCD+ Writer N-2017.12-SP2-1_Full64 Copyright (c) 1991-2017 by Synopsys Inc.
@@
@@
@@                     0  Asserting System reset......
@@
@@                     0 : System STILL at reset, can't show anything
@@
time:    0 if_valid_inst_out: xxx id_valid_inst_out: xxx id_IR_out[0]: xxxxxxxx rs_valid_inst_out:000 ex_valid_inst_out: 000
time:    5
time:    6 if_valid_inst_out: 000 id_valid_inst_out: 000 id_IR_out[0]: xxxxxxxx rs_valid_inst_out:000 ex_valid_inst_out: 000
@@
@@                   100 : System STILL at reset, can't show anything
@@
time:   15
time:   15 if_valid_inst_out: 000 id_valid_inst_out: 000 id_IR_out[0]: 00000000 rs_valid_inst_out:000 ex_valid_inst_out: 000
@@
@@                   200 : System STILL at reset, can't show anything
@@
time:   25
@@
@@                   300 : System STILL at reset, can't show anything
@@
time:   35
@@                   360  Deasserting System reset......
@@
@@
time:   45
HEAD: 0 TAIL: 0 NUM_FREE:16
time:   55
HEAD: 0 TAIL: 0 NUM_FREE:16
time:   65
HEAD: 0 TAIL: 0 NUM_FREE:16
time:   75
HEAD: 0 TAIL: 0 NUM_FREE:16
time:   85
HEAD: 0 TAIL: 0 NUM_FREE:16
time:   95
HEAD: 0 TAIL: 0 NUM_FREE:16
time:  105
HEAD: 0 TAIL: 0 NUM_FREE:16
time:  115
HEAD: 0 TAIL: 0 NUM_FREE:16
time:  125
HEAD: 0 TAIL: 0 NUM_FREE:16
time:  135
HEAD: 0 TAIL: 0 NUM_FREE:16
time:  145
HEAD: 0 TAIL: 0 NUM_FREE:16
time:  155
HEAD: 0 TAIL: 0 NUM_FREE:16
time:  165
HEAD: 0 TAIL: 0 NUM_FREE:16
time:  175
HEAD: 0 TAIL: 0 NUM_FREE:16
time:  185
HEAD: 0 TAIL: 0 NUM_FREE:16
time:  195
HEAD: 0 TAIL: 0 NUM_FREE:16
time:  205
HEAD: 0 TAIL: 0 NUM_FREE:16
time:  215
HEAD: 0 TAIL: 0 NUM_FREE:16
time:  225
HEAD: 0 TAIL: 0 NUM_FREE:16
time:  235
HEAD: 0 TAIL: 0 NUM_FREE:16
time:  245
HEAD: 0 TAIL: 0 NUM_FREE:16
time:  255
HEAD: 0 TAIL: 0 NUM_FREE:16
time:  255 if_valid_inst_out: 000 id_valid_inst_out: 000 id_IR_out[0]: 00100293 rs_valid_inst_out:000 ex_valid_inst_out: 000
time:  265
HEAD: 0 TAIL: 0 NUM_FREE:16
time:  275
HEAD: 0 TAIL: 0 NUM_FREE:16
time:  285
HEAD: 0 TAIL: 0 NUM_FREE:16
time:  295
HEAD: 0 TAIL: 0 NUM_FREE:16
time:  305
HEAD: 0 TAIL: 0 NUM_FREE:16
time:  315
HEAD: 0 TAIL: 0 NUM_FREE:16
time:  325
HEAD: 0 TAIL: 0 NUM_FREE:16
time:  335
HEAD: 0 TAIL: 0 NUM_FREE:16
time:  345
HEAD: 0 TAIL: 0 NUM_FREE:16
time:  355
HEAD: 0 TAIL: 0 NUM_FREE:16
time:  365
HEAD: 0 TAIL: 0 NUM_FREE:16
time:  365 if_valid_inst_out: 111 id_valid_inst_out: 111 id_IR_out[0]: 00100293 rs_valid_inst_out:000 ex_valid_inst_out: 000
time:  375
HEAD: 0 TAIL: 0 NUM_FREE:16
time:  376 if_valid_inst_out: 111 id_valid_inst_out: 111 id_IR_out[0]: 00128293 rs_valid_inst_out:000 ex_valid_inst_out: 000
time:  385
HEAD: 0 TAIL: 0 NUM_FREE:16
time:  386 if_valid_inst_out: 000 id_valid_inst_out: 000 id_IR_out[0]: xxxxxxxx rs_valid_inst_out:011 ex_valid_inst_out: 011
time:  395
DONE ROB : PC=00000000 CDB TARGET=00000004 IDX= 0
DONE ROB : PC=00000004 CDB TARGET=00000008 IDX= 1
HEAD: 0 TAIL: 3 NUM_FREE:13
COMMIT PC=00000000 MIS=0 IDX=         0
COMMIT PC=00000004 MIS=0 IDX=         1
COMMIT PC=00000000 MIS=0 IDX=         0
COMMIT PC=00000004 MIS=0 IDX=         1
time:  396 if_valid_inst_out: 000 id_valid_inst_out: 000 id_IR_out[0]: xxxxxxxx rs_valid_inst_out:111 ex_valid_inst_out: 111
time:  405
DONE ROB : PC=0000000c CDB TARGET=00000010 IDX= 3
DONE ROB : PC=00000014 CDB TARGET=00000008 IDX= 5
DONE ROB : PC=00000008 CDB TARGET=0000000c IDX= 2
HEAD: 0 TAIL: 6 NUM_FREE:10
COMMIT PC=00000008 MIS=0 IDX=         2
COMMIT PC=0000000c MIS=0 IDX=         3
time:  406 if_valid_inst_out: 000 id_valid_inst_out: 000 id_IR_out[0]: xxxxxxxx rs_valid_inst_out:001 ex_valid_inst_out: 001
time:  415
DONE ROB : PC=00000010 CDB TARGET=0000001c IDX= 4
HEAD: 2 TAIL: 6 NUM_FREE:12
COMMIT PC=00000010 MIS=1 IDX=         4
MISPREDICT
time:  416 if_valid_inst_out: 000 id_valid_inst_out: 000 id_IR_out[0]: xxxxxxxx rs_valid_inst_out:000 ex_valid_inst_out: 000
time:  425
time:  435
HEAD: 0 TAIL: 0 NUM_FREE:16
time:  445
HEAD: 0 TAIL: 0 NUM_FREE:16
time:  455
HEAD: 0 TAIL: 0 NUM_FREE:16
time:  465
HEAD: 0 TAIL: 0 NUM_FREE:16
time:  475
HEAD: 0 TAIL: 0 NUM_FREE:16
time:  485
HEAD: 0 TAIL: 0 NUM_FREE:16
time:  485 if_valid_inst_out: 000 id_valid_inst_out: 000 id_IR_out[0]: 00100193 rs_valid_inst_out:000 ex_valid_inst_out: 000
time:  495
HEAD: 0 TAIL: 0 NUM_FREE:16
time:  505
HEAD: 0 TAIL: 0 NUM_FREE:16
time:  515
HEAD: 0 TAIL: 0 NUM_FREE:16
time:  525
HEAD: 0 TAIL: 0 NUM_FREE:16
time:  535
HEAD: 0 TAIL: 0 NUM_FREE:16
time:  545
HEAD: 0 TAIL: 0 NUM_FREE:16
time:  555
HEAD: 0 TAIL: 0 NUM_FREE:16
time:  565
HEAD: 0 TAIL: 0 NUM_FREE:16
time:  575
HEAD: 0 TAIL: 0 NUM_FREE:16
time:  585
HEAD: 0 TAIL: 0 NUM_FREE:16
time:  595
HEAD: 0 TAIL: 0 NUM_FREE:16
time:  605
HEAD: 0 TAIL: 0 NUM_FREE:16
time:  615
HEAD: 0 TAIL: 0 NUM_FREE:16
time:  625
HEAD: 0 TAIL: 0 NUM_FREE:16
time:  635
HEAD: 0 TAIL: 0 NUM_FREE:16
time:  645
HEAD: 0 TAIL: 0 NUM_FREE:16
time:  655
HEAD: 0 TAIL: 0 NUM_FREE:16
time:  665
HEAD: 0 TAIL: 0 NUM_FREE:16
time:  675
HEAD: 0 TAIL: 0 NUM_FREE:16
time:  685
HEAD: 0 TAIL: 0 NUM_FREE:16
time:  695
HEAD: 0 TAIL: 0 NUM_FREE:16
time:  705
HEAD: 0 TAIL: 0 NUM_FREE:16
time:  705 if_valid_inst_out: 111 id_valid_inst_out: 111 id_IR_out[0]: 00100193 rs_valid_inst_out:000 ex_valid_inst_out: 000
time:  715
HEAD: 0 TAIL: 0 NUM_FREE:16
time:  716 if_valid_inst_out: 000 id_valid_inst_out: 000 id_IR_out[0]: 00118193 rs_valid_inst_out:000 ex_valid_inst_out: 000
time:  725
HEAD: 0 TAIL: 0 NUM_FREE:16
time:  726 if_valid_inst_out: 000 id_valid_inst_out: 000 id_IR_out[0]: 00118193 rs_valid_inst_out:011 ex_valid_inst_out: 011
time:  735
DONE ROB : PC=0000001c CDB TARGET=00000020 IDX= 0
DONE ROB : PC=00000020 CDB TARGET=00000024 IDX= 1
HEAD: 0 TAIL: 3 NUM_FREE:13
COMMIT PC=0000001c MIS=0 IDX=         0
COMMIT PC=00000020 MIS=0 IDX=         1
time:  736 if_valid_inst_out: 000 id_valid_inst_out: 000 id_IR_out[0]: 00118193 rs_valid_inst_out:001 ex_valid_inst_out: 001
time:  745
DONE ROB : PC=00000024 CDB TARGET=00000028 IDX= 2
HEAD: 0 TAIL: 3 NUM_FREE:13
COMMIT PC=00000024 MIS=0 IDX=         2
time:  746 if_valid_inst_out: 000 id_valid_inst_out: 000 id_IR_out[0]: 00118193 rs_valid_inst_out:000 ex_valid_inst_out: 000
time:  755
HEAD: 2 TAIL: 3 NUM_FREE:15
time:  765
HEAD: 3 TAIL: 3 NUM_FREE:16
time:  775
HEAD: 3 TAIL: 3 NUM_FREE:16
time:  785
HEAD: 3 TAIL: 3 NUM_FREE:16
time:  795
HEAD: 3 TAIL: 3 NUM_FREE:16
time:  805
HEAD: 3 TAIL: 3 NUM_FREE:16
time:  815
HEAD: 3 TAIL: 3 NUM_FREE:16
time:  825
HEAD: 3 TAIL: 3 NUM_FREE:16
time:  835
HEAD: 3 TAIL: 3 NUM_FREE:16
time:  845
HEAD: 3 TAIL: 3 NUM_FREE:16
time:  855
HEAD: 3 TAIL: 3 NUM_FREE:16
time:  865
HEAD: 3 TAIL: 3 NUM_FREE:16
time:  875
HEAD: 3 TAIL: 3 NUM_FREE:16
time:  885
HEAD: 3 TAIL: 3 NUM_FREE:16
time:  895
HEAD: 3 TAIL: 3 NUM_FREE:16
time:  905
HEAD: 3 TAIL: 3 NUM_FREE:16
time:  915
HEAD: 3 TAIL: 3 NUM_FREE:16
time:  925
HEAD: 3 TAIL: 3 NUM_FREE:16
time:  935
HEAD: 3 TAIL: 3 NUM_FREE:16
time:  935 if_valid_inst_out: 111 id_valid_inst_out: 111 id_IR_out[0]: 00118193 rs_valid_inst_out:000 ex_valid_inst_out: 000
time:  945
HEAD: 3 TAIL: 3 NUM_FREE:16
time:  946 if_valid_inst_out: 001 id_valid_inst_out: 001 id_IR_out[0]: 00008067 rs_valid_inst_out:000 ex_valid_inst_out: 000
time:  955
HEAD: 3 TAIL: 3 NUM_FREE:16
time:  956 if_valid_inst_out: 000 id_valid_inst_out: 000 id_IR_out[0]: xxxxxxxx rs_valid_inst_out:011 ex_valid_inst_out: 011
time:  965
DONE ROB : PC=00000028 CDB TARGET=0000002c IDX= 3
DONE ROB : PC=00000030 CDB TARGET=00000024 IDX= 5
HEAD: 3 TAIL: 6 NUM_FREE:13
COMMIT PC=00000028 MIS=0 IDX=         3
COMMIT PC=00000028 MIS=0 IDX=         3
time:  966 if_valid_inst_out: 000 id_valid_inst_out: 000 id_IR_out[0]: xxxxxxxx rs_valid_inst_out:011 ex_valid_inst_out: 001
time:  975
DONE ROB : PC=00000034 CDB TARGET=00000014 IDX= 6
HEAD: 3 TAIL: 7 NUM_FREE:12
time:  976 if_valid_inst_out: 000 id_valid_inst_out: 000 id_IR_out[0]: xxxxxxxx rs_valid_inst_out:000 ex_valid_inst_out: 000
time:  985
HEAD: 4 TAIL: 7 NUM_FREE:13
time:  995
HEAD: 4 TAIL: 7 NUM_FREE:13
time: 1005
HEAD: 4 TAIL: 7 NUM_FREE:13
time: 1005 if_valid_inst_out: 000 id_valid_inst_out: 000 id_IR_out[0]: xxxxxxxx rs_valid_inst_out:000 ex_valid_inst_out: 010
time: 1015
DONE ROB : PC=0000002c CDB TARGET=00000030 IDX= 4
HEAD: 4 TAIL: 7 NUM_FREE:13
time: 1015 if_valid_inst_out: 000 id_valid_inst_out: 000 id_IR_out[0]: xxxxxxxx rs_valid_inst_out:000 ex_valid_inst_out: 000
COMMIT PC=0000002c MIS=0 IDX=         4
COMMIT PC=00000030 MIS=1 IDX=         5
MISPREDICT
time: 1025
time: 1026 if_valid_inst_out: 111 id_valid_inst_out: 111 id_IR_out[0]: 00518863 rs_valid_inst_out:000 ex_valid_inst_out: 000
time: 1035
HEAD: 0 TAIL: 0 NUM_FREE:16
time: 1036 if_valid_inst_out: 011 id_valid_inst_out: 001 id_IR_out[0]: ff5ff06f rs_valid_inst_out:000 ex_valid_inst_out: 000
time: 1045
HEAD: 0 TAIL: 0 NUM_FREE:16
time: 1046 if_valid_inst_out: 111 id_valid_inst_out: 111 id_IR_out[0]: 00518863 rs_valid_inst_out:011 ex_valid_inst_out: 011
time: 1055
DONE ROB : PC=00000024 CDB TARGET=00000034 IDX= 0
DONE ROB : PC=00000028 CDB TARGET=0000002c IDX= 1
HEAD: 0 TAIL: 3 NUM_FREE:13
COMMIT PC=00000024 MIS=1 IDX=         0
MISPREDICT
COMMIT PC=00000024 MIS=1 IDX=         0
MISPREDICT
time: 1056 if_valid_inst_out: 011 id_valid_inst_out: 001 id_IR_out[0]: ff5ff06f rs_valid_inst_out:000 ex_valid_inst_out: 000
time: 1065
time: 1066 if_valid_inst_out: 001 id_valid_inst_out: 001 id_IR_out[0]: 00008067 rs_valid_inst_out:011 ex_valid_inst_out: 011
time: 1075
HEAD: 0 TAIL: 0 NUM_FREE:16
time: 1076 if_valid_inst_out: 000 id_valid_inst_out: 000 id_IR_out[0]: 00000000 rs_valid_inst_out:000 ex_valid_inst_out: 000
time: 1085
HEAD: 0 TAIL: 0 NUM_FREE:16
time: 1086 if_valid_inst_out: 000 id_valid_inst_out: 000 id_IR_out[0]: 00000000 rs_valid_inst_out:001 ex_valid_inst_out: 001
time: 1095
DONE ROB : PC=00000034 CDB TARGET=00000014 IDX= 0
HEAD: 0 TAIL: 1 NUM_FREE:15
COMMIT PC=00000034 MIS=1 IDX=         0
MISPREDICT
time: 1096 if_valid_inst_out: 000 id_valid_inst_out: 000 id_IR_out[0]: 00000000 rs_valid_inst_out:000 ex_valid_inst_out: 000
time: 1105
time: 1106 if_valid_inst_out: 111 id_valid_inst_out: 111 id_IR_out[0]: ff5ff06f rs_valid_inst_out:000 ex_valid_inst_out: 000
time: 1115
HEAD: 0 TAIL: 0 NUM_FREE:16
time: 1116 if_valid_inst_out: 111 id_valid_inst_out: 111 id_IR_out[0]: 00100213 rs_valid_inst_out:000 ex_valid_inst_out: 000
time: 1125
HEAD: 0 TAIL: 0 NUM_FREE:16
time: 1126 if_valid_inst_out: 111 id_valid_inst_out: 011 id_IR_out[0]: 02418233 rs_valid_inst_out:111 ex_valid_inst_out: 111
time: 1135
DONE ROB : PC=00000014 CDB TARGET=00000008 IDX= 0
DONE ROB : PC=00000018 CDB TARGET=0000001c IDX= 1
DONE ROB : PC=0000001c CDB TARGET=00000020 IDX= 2
HEAD: 0 TAIL: 3 NUM_FREE:13
COMMIT PC=00000014 MIS=1 IDX=         0
MISPREDICT
COMMIT PC=00000014 MIS=1 IDX=         0
MISPREDICT
time: 1136 if_valid_inst_out: 111 id_valid_inst_out: 111 id_IR_out[0]: 00518863 rs_valid_inst_out:000 ex_valid_inst_out: 000
time: 1145
time: 1146 if_valid_inst_out: 111 id_valid_inst_out: 111 id_IR_out[0]: 00628863 rs_valid_inst_out:001 ex_valid_inst_out: 001
time: 1155
HEAD: 0 TAIL: 0 NUM_FREE:16
time: 1156 if_valid_inst_out: 111 id_valid_inst_out: 111 id_IR_out[0]: 00100193 rs_valid_inst_out:000 ex_valid_inst_out: 000
time: 1165
HEAD: 0 TAIL: 0 NUM_FREE:16
time: 1166 if_valid_inst_out: 111 id_valid_inst_out: 111 id_IR_out[0]: 00118193 rs_valid_inst_out:111 ex_valid_inst_out: 111
time: 1175
DONE ROB : PC=00000008 CDB TARGET=0000000c IDX= 0
DONE ROB : PC=0000000c CDB TARGET=00000010 IDX= 1
DONE ROB : PC=00000010 CDB TARGET=0000001c IDX= 2
HEAD: 0 TAIL: 3 NUM_FREE:13
COMMIT PC=00000008 MIS=0 IDX=         0
COMMIT PC=0000000c MIS=0 IDX=         1
COMMIT PC=00000010 MIS=0 IDX=         2
COMMIT PC=00000008 MIS=0 IDX=         0
COMMIT PC=0000000c MIS=0 IDX=         1
COMMIT PC=00000010 MIS=0 IDX=         2
time: 1176 if_valid_inst_out: 111 id_valid_inst_out: 111 id_IR_out[0]: 00518863 rs_valid_inst_out:011 ex_valid_inst_out: 011
time: 1185
DONE ROB : PC=0000001c CDB TARGET=00000020 IDX= 3
DONE ROB : PC=00000020 CDB TARGET=00000024 IDX= 4
HEAD: 0 TAIL: 6 NUM_FREE:10
COMMIT PC=0000001c MIS=0 IDX=         3
COMMIT PC=00000020 MIS=0 IDX=         4
COMMIT PC=0000001c MIS=0 IDX=         3
COMMIT PC=00000020 MIS=0 IDX=         4
time: 1186 if_valid_inst_out: 011 id_valid_inst_out: 001 id_IR_out[0]: ff5ff06f rs_valid_inst_out:111 ex_valid_inst_out: 111
time: 1195
DONE ROB : PC=00000028 CDB TARGET=0000002c IDX= 6
DONE ROB : PC=00000030 CDB TARGET=00000024 IDX= 8
DONE ROB : PC=00000024 CDB TARGET=00000028 IDX= 5
HEAD: 3 TAIL: 9 NUM_FREE:10
COMMIT PC=00000024 MIS=0 IDX=         5
COMMIT PC=00000028 MIS=0 IDX=         6
COMMIT PC=00000024 MIS=0 IDX=         5
COMMIT PC=00000028 MIS=0 IDX=         6
time: 1196 if_valid_inst_out: 111 id_valid_inst_out: 111 id_IR_out[0]: 00518863 rs_valid_inst_out:111 ex_valid_inst_out: 100
time: 1205
DONE ROB : PC=00000028 CDB TARGET=0000002c IDX=10
HEAD: 5 TAIL:12 NUM_FREE: 9
time: 1206 if_valid_inst_out: 011 id_valid_inst_out: 001 id_IR_out[0]: ff5ff06f rs_valid_inst_out:100 ex_valid_inst_out: 100
time: 1215
DONE ROB : PC=00000030 CDB TARGET=00000024 IDX=12
HEAD: 7 TAIL:13 NUM_FREE:10
time: 1216 if_valid_inst_out: 111 id_valid_inst_out: 111 id_IR_out[0]: 00518863 rs_valid_inst_out:100 ex_valid_inst_out: 100
time: 1225
DONE ROB : PC=00000024 CDB TARGET=00000034 IDX=13
HEAD: 7 TAIL: 0 NUM_FREE: 7
time: 1226 if_valid_inst_out: 000 id_valid_inst_out: 000 id_IR_out[0]: ff5ff06f rs_valid_inst_out:100 ex_valid_inst_out: 100
time: 1235
DONE ROB : PC=00000030 CDB TARGET=00000024 IDX= 0
HEAD: 7 TAIL: 1 NUM_FREE: 6
time: 1235 if_valid_inst_out: 000 id_valid_inst_out: 000 id_IR_out[0]: ff5ff06f rs_valid_inst_out:100 ex_valid_inst_out: 111
time: 1245
DONE ROB : PC=00000028 CDB TARGET=00000030 IDX= 6
DONE ROB : PC=0000002c CDB TARGET=00000030 IDX= 7
DONE ROB : PC=00000024 CDB TARGET=00000028 IDX= 9
HEAD: 7 TAIL: 4 NUM_FREE: 3
time: 1245 if_valid_inst_out: 000 id_valid_inst_out: 000 id_IR_out[0]: ff5ff06f rs_valid_inst_out:100 ex_valid_inst_out: 100
COMMIT PC=0000002c MIS=0 IDX=         7
COMMIT PC=00000030 MIS=0 IDX=         8
COMMIT PC=00000024 MIS=0 IDX=         9
time: 1246 if_valid_inst_out: 011 id_valid_inst_out: 001 id_IR_out[0]: ff5ff06f rs_valid_inst_out:011 ex_valid_inst_out: 001
time: 1255
DONE ROB : PC=00000028 CDB TARGET=0000002c IDX=14
HEAD: 7 TAIL: 4 NUM_FREE: 3
time: 1255 if_valid_inst_out: 000 id_valid_inst_out: 000 id_IR_out[0]: ff5ff06f rs_valid_inst_out:011 ex_valid_inst_out: 001
COMMIT PC=00000028 MIS=0 IDX=        10
COMMIT PC=00000028 MIS=0 IDX=        10
time: 1256 if_valid_inst_out: 111 id_valid_inst_out: 111 id_IR_out[0]: 00518863 rs_valid_inst_out:101 ex_valid_inst_out: 101
time: 1265
DONE ROB : PC=00000024 CDB TARGET=00000028 IDX= 1
DONE ROB : PC=00000028 CDB TARGET=0000002c IDX= 2
HEAD:10 TAIL: 4 NUM_FREE: 6
time: 1266 if_valid_inst_out: 000 id_valid_inst_out: 000 id_IR_out[0]: ff5ff06f rs_valid_inst_out:001 ex_valid_inst_out: 001
time: 1275
DONE ROB : PC=00000030 CDB TARGET=00000024 IDX= 4
HEAD:11 TAIL: 5 NUM_FREE: 6
time: 1276 if_valid_inst_out: 000 id_valid_inst_out: 000 id_IR_out[0]: ff5ff06f rs_valid_inst_out:101 ex_valid_inst_out: 101
time: 1285
DONE ROB : PC=00000024 CDB TARGET=00000028 IDX= 5
DONE ROB : PC=00000028 CDB TARGET=0000002c IDX= 6
HEAD:11 TAIL: 8 NUM_FREE: 3
time: 1285 if_valid_inst_out: 000 id_valid_inst_out: 000 id_IR_out[0]: ff5ff06f rs_valid_inst_out:101 ex_valid_inst_out: 111
time: 1286 if_valid_inst_out: 000 id_valid_inst_out: 000 id_IR_out[0]: ff5ff06f rs_valid_inst_out:000 ex_valid_inst_out: 010
time: 1295
DONE ROB : PC=0000002c CDB TARGET=00000030 IDX=11
HEAD:11 TAIL: 8 NUM_FREE: 3
time: 1295 if_valid_inst_out: 000 id_valid_inst_out: 000 id_IR_out[0]: ff5ff06f rs_valid_inst_out:000 ex_valid_inst_out: 000
COMMIT PC=0000002c MIS=0 IDX=        11
COMMIT PC=00000030 MIS=0 IDX=        12
COMMIT PC=00000024 MIS=1 IDX=        13
MISPREDICT
time: 1296 if_valid_inst_out: 011 id_valid_inst_out: 001 id_IR_out[0]: ff5ff06f rs_valid_inst_out:000 ex_valid_inst_out: 000
time: 1305
time: 1306 if_valid_inst_out: 001 id_valid_inst_out: 001 id_IR_out[0]: 00008067 rs_valid_inst_out:000 ex_valid_inst_out: 000
time: 1315
HEAD: 0 TAIL: 0 NUM_FREE:16
time: 1316 if_valid_inst_out: 111 id_valid_inst_out: 001 id_IR_out[0]: ff5ff06f rs_valid_inst_out:000 ex_valid_inst_out: 000
time: 1325
HEAD: 0 TAIL: 0 NUM_FREE:16
time: 1326 if_valid_inst_out: 111 id_valid_inst_out: 111 id_IR_out[0]: 00628863 rs_valid_inst_out:001 ex_valid_inst_out: 001
time: 1335
DONE ROB : PC=00000034 CDB TARGET=00000014 IDX= 0
HEAD: 0 TAIL: 1 NUM_FREE:15
COMMIT PC=00000034 MIS=0 IDX=         0
COMMIT PC=00000034 MIS=0 IDX=         0
time: 1336 if_valid_inst_out: 111 id_valid_inst_out: 111 id_IR_out[0]: 00100193 rs_valid_inst_out:001 ex_valid_inst_out: 001
time: 1345
DONE ROB : PC=00000014 CDB TARGET=00000008 IDX= 1
HEAD: 0 TAIL: 2 NUM_FREE:14
COMMIT PC=00000014 MIS=0 IDX=         1
COMMIT PC=00000014 MIS=0 IDX=         1
time: 1346 if_valid_inst_out: 111 id_valid_inst_out: 111 id_IR_out[0]: 00118193 rs_valid_inst_out:111 ex_valid_inst_out: 111
time: 1355
DONE ROB : PC=00000008 CDB TARGET=0000000c IDX= 2
DONE ROB : PC=0000000c CDB TARGET=00000010 IDX= 3
DONE ROB : PC=00000010 CDB TARGET=0000001c IDX= 4
HEAD: 1 TAIL: 5 NUM_FREE:12
COMMIT PC=00000008 MIS=0 IDX=         2
COMMIT PC=0000000c MIS=0 IDX=         3
COMMIT PC=00000010 MIS=0 IDX=         4
COMMIT PC=00000008 MIS=0 IDX=         2
COMMIT PC=0000000c MIS=0 IDX=         3
COMMIT PC=00000010 MIS=0 IDX=         4
time: 1356 if_valid_inst_out: 111 id_valid_inst_out: 111 id_IR_out[0]: 00518863 rs_valid_inst_out:011 ex_valid_inst_out: 011
time: 1365
DONE ROB : PC=0000001c CDB TARGET=00000020 IDX= 5
DONE ROB : PC=00000020 CDB TARGET=00000024 IDX= 6
HEAD: 2 TAIL: 8 NUM_FREE:10
COMMIT PC=0000001c MIS=0 IDX=         5
COMMIT PC=00000020 MIS=0 IDX=         6
COMMIT PC=0000001c MIS=0 IDX=         5
COMMIT PC=00000020 MIS=0 IDX=         6
time: 1366 if_valid_inst_out: 011 id_valid_inst_out: 001 id_IR_out[0]: ff5ff06f rs_valid_inst_out:111 ex_valid_inst_out: 111
time: 1375
DONE ROB : PC=00000028 CDB TARGET=0000002c IDX= 8
DONE ROB : PC=00000030 CDB TARGET=00000024 IDX=10
DONE ROB : PC=00000024 CDB TARGET=00000028 IDX= 7
HEAD: 5 TAIL:11 NUM_FREE:10
COMMIT PC=00000024 MIS=0 IDX=         7
COMMIT PC=00000028 MIS=0 IDX=         8
COMMIT PC=00000024 MIS=0 IDX=         7
COMMIT PC=00000028 MIS=0 IDX=         8
time: 1376 if_valid_inst_out: 111 id_valid_inst_out: 111 id_IR_out[0]: 00518863 rs_valid_inst_out:111 ex_valid_inst_out: 101
time: 1385
DONE ROB : PC=00000024 CDB TARGET=00000028 IDX=11
DONE ROB : PC=00000028 CDB TARGET=0000002c IDX=12
HEAD: 7 TAIL:14 NUM_FREE: 9
time: 1386 if_valid_inst_out: 011 id_valid_inst_out: 001 id_IR_out[0]: ff5ff06f rs_valid_inst_out:001 ex_valid_inst_out: 001
time: 1395
DONE ROB : PC=00000030 CDB TARGET=00000024 IDX=14
HEAD: 9 TAIL:15 NUM_FREE:10
time: 1396 if_valid_inst_out: 111 id_valid_inst_out: 111 id_IR_out[0]: 00518863 rs_valid_inst_out:101 ex_valid_inst_out: 101
time: 1405
DONE ROB : PC=00000024 CDB TARGET=00000028 IDX=15
DONE ROB : PC=00000028 CDB TARGET=0000002c IDX= 0
HEAD: 9 TAIL: 2 NUM_FREE: 7
time: 1406 if_valid_inst_out: 000 id_valid_inst_out: 000 id_IR_out[0]: ff5ff06f rs_valid_inst_out:001 ex_valid_inst_out: 001
time: 1415
DONE ROB : PC=00000030 CDB TARGET=00000024 IDX= 2
HEAD: 9 TAIL: 3 NUM_FREE: 6
time: 1415 if_valid_inst_out: 000 id_valid_inst_out: 000 id_IR_out[0]: ff5ff06f rs_valid_inst_out:001 ex_valid_inst_out: 011
time: 1416 if_valid_inst_out: 000 id_valid_inst_out: 000 id_IR_out[0]: ff5ff06f rs_valid_inst_out:101 ex_valid_inst_out: 111
time: 1425
DONE ROB : PC=00000024 CDB TARGET=00000034 IDX= 3
DONE ROB : PC=0000002c CDB TARGET=00000030 IDX= 9
DONE ROB : PC=00000028 CDB TARGET=0000002c IDX= 4
HEAD: 9 TAIL: 6 NUM_FREE: 3
time: 1425 if_valid_inst_out: 000 id_valid_inst_out: 000 id_IR_out[0]: ff5ff06f rs_valid_inst_out:101 ex_valid_inst_out: 101
COMMIT PC=0000002c MIS=0 IDX=         9
COMMIT PC=00000030 MIS=0 IDX=        10
COMMIT PC=00000024 MIS=0 IDX=        11
time: 1426 if_valid_inst_out: 011 id_valid_inst_out: 001 id_IR_out[0]: ff5ff06f rs_valid_inst_out:001 ex_valid_inst_out: 000
time: 1435
HEAD: 9 TAIL: 6 NUM_FREE: 3
time: 1435 if_valid_inst_out: 000 id_valid_inst_out: 000 id_IR_out[0]: ff5ff06f rs_valid_inst_out:001 ex_valid_inst_out: 000
COMMIT PC=00000028 MIS=0 IDX=        12
COMMIT PC=00000028 MIS=0 IDX=        12
time: 1436 if_valid_inst_out: 111 id_valid_inst_out: 111 id_IR_out[0]: 00518863 rs_valid_inst_out:000 ex_valid_inst_out: 000
time: 1445
HEAD:12 TAIL: 6 NUM_FREE: 6
time: 1446 if_valid_inst_out: 000 id_valid_inst_out: 000 id_IR_out[0]: ff5ff06f rs_valid_inst_out:010 ex_valid_inst_out: 010
time: 1455
DONE ROB : PC=00000030 CDB TARGET=00000024 IDX= 6
HEAD:13 TAIL: 7 NUM_FREE: 6
time: 1456 if_valid_inst_out: 000 id_valid_inst_out: 000 id_IR_out[0]: ff5ff06f rs_valid_inst_out:110 ex_valid_inst_out: 110
time: 1465
DONE ROB : PC=00000024 CDB TARGET=00000028 IDX= 7
DONE ROB : PC=00000028 CDB TARGET=0000002c IDX= 8
HEAD:13 TAIL:10 NUM_FREE: 3
time: 1465 if_valid_inst_out: 000 id_valid_inst_out: 000 id_IR_out[0]: ff5ff06f rs_valid_inst_out:110 ex_valid_inst_out: 111
time: 1466 if_valid_inst_out: 000 id_valid_inst_out: 000 id_IR_out[0]: ff5ff06f rs_valid_inst_out:000 ex_valid_inst_out: 001
time: 1475
DONE ROB : PC=0000002c CDB TARGET=00000030 IDX=13
HEAD:13 TAIL:10 NUM_FREE: 3
time: 1475 if_valid_inst_out: 000 id_valid_inst_out: 000 id_IR_out[0]: ff5ff06f rs_valid_inst_out:000 ex_valid_inst_out: 000
COMMIT PC=0000002c MIS=0 IDX=        13
COMMIT PC=00000030 MIS=0 IDX=        14
COMMIT PC=00000024 MIS=0 IDX=        15
time: 1476 if_valid_inst_out: 011 id_valid_inst_out: 001 id_IR_out[0]: ff5ff06f rs_valid_inst_out:001 ex_valid_inst_out: 000
time: 1485
HEAD:13 TAIL:10 NUM_FREE: 3
time: 1485 if_valid_inst_out: 000 id_valid_inst_out: 000 id_IR_out[0]: ff5ff06f rs_valid_inst_out:001 ex_valid_inst_out: 000
COMMIT PC=00000028 MIS=0 IDX=         0
COMMIT PC=00000028 MIS=0 IDX=         0
time: 1486 if_valid_inst_out: 111 id_valid_inst_out: 111 id_IR_out[0]: 00518863 rs_valid_inst_out:000 ex_valid_inst_out: 000
time: 1495
HEAD: 0 TAIL:10 NUM_FREE: 6
time: 1496 if_valid_inst_out: 000 id_valid_inst_out: 000 id_IR_out[0]: ff5ff06f rs_valid_inst_out:010 ex_valid_inst_out: 010
time: 1505
DONE ROB : PC=00000030 CDB TARGET=00000024 IDX=10
HEAD: 1 TAIL:11 NUM_FREE: 6
time: 1506 if_valid_inst_out: 000 id_valid_inst_out: 000 id_IR_out[0]: ff5ff06f rs_valid_inst_out:110 ex_valid_inst_out: 110
time: 1515
DONE ROB : PC=00000024 CDB TARGET=00000028 IDX=11
DONE ROB : PC=00000028 CDB TARGET=0000002c IDX=12
HEAD: 1 TAIL:14 NUM_FREE: 3
