program.out
Chronologic VCS simulator copyright 1991-2017
Contains Synopsys proprietary information.
Compiler version N-2017.12-SP2-1_Full64; Runtime version N-2017.12-SP2-1_Full64;  Apr 14 18:58 2020
VCD+ Writer N-2017.12-SP2-1_Full64 Copyright (c) 1991-2017 by Synopsys Inc.
@@
@@
@@                     0  Asserting System reset......
@@
@@                     0 : System STILL at reset, can't show anything
@@
time:    0 if_valid_inst_out: xxx id_valid_inst_out: xxx id_IR_out[0]: xxxxxxxx rs_valid_inst_out:000 ex_valid_inst_out: 000
time:    5
time:    6 if_valid_inst_out: 000 id_valid_inst_out: 000 id_IR_out[0]: xxxxxxxx rs_valid_inst_out:000 ex_valid_inst_out: 000
@@
@@                   100 : System STILL at reset, can't show anything
@@
time:   15
time:   15 if_valid_inst_out: 000 id_valid_inst_out: 000 id_IR_out[0]: 00000000 rs_valid_inst_out:000 ex_valid_inst_out: 000
@@
@@                   200 : System STILL at reset, can't show anything
@@
time:   25
@@
@@                   300 : System STILL at reset, can't show anything
@@
time:   35
@@                   360  Deasserting System reset......
@@
@@
time:   45
HEAD: 0 TAIL: 0 NUM_FREE:16
time:   55
HEAD: 0 TAIL: 0 NUM_FREE:16
time:   65
HEAD: 0 TAIL: 0 NUM_FREE:16
time:   75
HEAD: 0 TAIL: 0 NUM_FREE:16
time:   85
HEAD: 0 TAIL: 0 NUM_FREE:16
time:   95
HEAD: 0 TAIL: 0 NUM_FREE:16
time:  105
HEAD: 0 TAIL: 0 NUM_FREE:16
time:  115
HEAD: 0 TAIL: 0 NUM_FREE:16
time:  125
HEAD: 0 TAIL: 0 NUM_FREE:16
time:  135
HEAD: 0 TAIL: 0 NUM_FREE:16
time:  145
HEAD: 0 TAIL: 0 NUM_FREE:16
time:  155
HEAD: 0 TAIL: 0 NUM_FREE:16
time:  165
HEAD: 0 TAIL: 0 NUM_FREE:16
time:  175
HEAD: 0 TAIL: 0 NUM_FREE:16
time:  185
HEAD: 0 TAIL: 0 NUM_FREE:16
time:  195
HEAD: 0 TAIL: 0 NUM_FREE:16
time:  205
HEAD: 0 TAIL: 0 NUM_FREE:16
time:  215
HEAD: 0 TAIL: 0 NUM_FREE:16
time:  225
HEAD: 0 TAIL: 0 NUM_FREE:16
time:  235
HEAD: 0 TAIL: 0 NUM_FREE:16
time:  245
HEAD: 0 TAIL: 0 NUM_FREE:16
time:  255
HEAD: 0 TAIL: 0 NUM_FREE:16
time:  255 if_valid_inst_out: 000 id_valid_inst_out: 000 id_IR_out[0]: 00000013 rs_valid_inst_out:000 ex_valid_inst_out: 000
time:  265
HEAD: 0 TAIL: 0 NUM_FREE:16
time:  275
HEAD: 0 TAIL: 0 NUM_FREE:16
time:  285
HEAD: 0 TAIL: 0 NUM_FREE:16
time:  295
HEAD: 0 TAIL: 0 NUM_FREE:16
time:  305
HEAD: 0 TAIL: 0 NUM_FREE:16
time:  315
HEAD: 0 TAIL: 0 NUM_FREE:16
time:  325
HEAD: 0 TAIL: 0 NUM_FREE:16
time:  335
HEAD: 0 TAIL: 0 NUM_FREE:16
time:  345
HEAD: 0 TAIL: 0 NUM_FREE:16
time:  355
HEAD: 0 TAIL: 0 NUM_FREE:16
time:  365
HEAD: 0 TAIL: 0 NUM_FREE:16
time:  365 if_valid_inst_out: 111 id_valid_inst_out: 111 id_IR_out[0]: 00000013 rs_valid_inst_out:000 ex_valid_inst_out: 000
time:  375
HEAD: 0 TAIL: 0 NUM_FREE:16
time:  376 if_valid_inst_out: 111 id_valid_inst_out: 111 id_IR_out[0]: 01a58593 rs_valid_inst_out:000 ex_valid_inst_out: 000
time:  385
HEAD: 0 TAIL: 0 NUM_FREE:16
time:  386 if_valid_inst_out: 000 id_valid_inst_out: 000 id_IR_out[0]: xxxxxxxx rs_valid_inst_out:111 ex_valid_inst_out: 111
time:  395
DONE ROB : PC=00000000 CDB TARGET=00000004 IDX= 0
DONE ROB : PC=00000004 CDB TARGET=00000008 IDX= 1
DONE ROB : PC=00000008 CDB TARGET=0000000c IDX= 2
HEAD: 0 TAIL: 3 NUM_FREE:13
COMMIT PC=00000000 MIS=0 IDX=         0
COMMIT PC=00000004 MIS=0 IDX=         1
COMMIT PC=00000008 MIS=0 IDX=         2
COMMIT PC=00000000 MIS=0 IDX=         0
COMMIT PC=00000004 MIS=0 IDX=         1
COMMIT PC=00000008 MIS=0 IDX=         2
time:  405
DONE ROB : PC=0000000c CDB TARGET=00000010 IDX= 3
DONE ROB : PC=00000010 CDB TARGET=00000014 IDX= 4
DONE ROB : PC=00000014 CDB TARGET=00000018 IDX= 5
HEAD: 0 TAIL: 6 NUM_FREE:10
COMMIT PC=0000000c MIS=0 IDX=         3
COMMIT PC=00000010 MIS=0 IDX=         4
COMMIT PC=00000014 MIS=0 IDX=         5
time:  406 if_valid_inst_out: 000 id_valid_inst_out: 000 id_IR_out[0]: xxxxxxxx rs_valid_inst_out:000 ex_valid_inst_out: 000
time:  415
HEAD: 3 TAIL: 6 NUM_FREE:13
time:  425
HEAD: 6 TAIL: 6 NUM_FREE:16
time:  435
HEAD: 6 TAIL: 6 NUM_FREE:16
time:  445
HEAD: 6 TAIL: 6 NUM_FREE:16
time:  455
HEAD: 6 TAIL: 6 NUM_FREE:16
time:  465
HEAD: 6 TAIL: 6 NUM_FREE:16
time:  475
HEAD: 6 TAIL: 6 NUM_FREE:16
time:  485
HEAD: 6 TAIL: 6 NUM_FREE:16
time:  485 if_valid_inst_out: 000 id_valid_inst_out: 000 id_IR_out[0]: 80010113 rs_valid_inst_out:000 ex_valid_inst_out: 000
time:  495
HEAD: 6 TAIL: 6 NUM_FREE:16
time:  505
HEAD: 6 TAIL: 6 NUM_FREE:16
time:  515
HEAD: 6 TAIL: 6 NUM_FREE:16
time:  525
HEAD: 6 TAIL: 6 NUM_FREE:16
time:  535
HEAD: 6 TAIL: 6 NUM_FREE:16
time:  545
HEAD: 6 TAIL: 6 NUM_FREE:16
time:  555
HEAD: 6 TAIL: 6 NUM_FREE:16
time:  565
HEAD: 6 TAIL: 6 NUM_FREE:16
time:  575
HEAD: 6 TAIL: 6 NUM_FREE:16
time:  585
HEAD: 6 TAIL: 6 NUM_FREE:16
time:  595
HEAD: 6 TAIL: 6 NUM_FREE:16
time:  605
HEAD: 6 TAIL: 6 NUM_FREE:16
time:  615
HEAD: 6 TAIL: 6 NUM_FREE:16
time:  625
HEAD: 6 TAIL: 6 NUM_FREE:16
time:  635
HEAD: 6 TAIL: 6 NUM_FREE:16
time:  645
HEAD: 6 TAIL: 6 NUM_FREE:16
time:  655
HEAD: 6 TAIL: 6 NUM_FREE:16
time:  665
HEAD: 6 TAIL: 6 NUM_FREE:16
time:  675
HEAD: 6 TAIL: 6 NUM_FREE:16
time:  685
HEAD: 6 TAIL: 6 NUM_FREE:16
time:  695
HEAD: 6 TAIL: 6 NUM_FREE:16
time:  705
HEAD: 6 TAIL: 6 NUM_FREE:16
time:  705 if_valid_inst_out: 111 id_valid_inst_out: 111 id_IR_out[0]: 80010113 rs_valid_inst_out:000 ex_valid_inst_out: 000
time:  715
HEAD: 6 TAIL: 6 NUM_FREE:16
time:  716 if_valid_inst_out: 111 id_valid_inst_out: 111 id_IR_out[0]: 00a60533 rs_valid_inst_out:000 ex_valid_inst_out: 000
time:  725
HEAD: 6 TAIL: 6 NUM_FREE:16
time:  726 if_valid_inst_out: 000 id_valid_inst_out: 000 id_IR_out[0]: xxxxxxxx rs_valid_inst_out:001 ex_valid_inst_out: 001
time:  735
DONE ROB : PC=00000018 CDB TARGET=0000001c IDX= 6
HEAD: 6 TAIL: 9 NUM_FREE:13
COMMIT PC=00000018 MIS=0 IDX=         6
COMMIT PC=00000018 MIS=0 IDX=         6
time:  736 if_valid_inst_out: 000 id_valid_inst_out: 000 id_IR_out[0]: xxxxxxxx rs_valid_inst_out:111 ex_valid_inst_out: 111
time:  745
DONE ROB : PC=00000024 CDB TARGET=00000028 IDX= 9
DONE ROB : PC=0000001c CDB TARGET=00000020 IDX= 7
DONE ROB : PC=00000020 CDB TARGET=00000024 IDX= 8
HEAD: 6 TAIL:12 NUM_FREE:10
COMMIT PC=0000001c MIS=0 IDX=         7
COMMIT PC=00000020 MIS=0 IDX=         8
COMMIT PC=00000024 MIS=0 IDX=         9
time:  746 if_valid_inst_out: 000 id_valid_inst_out: 000 id_IR_out[0]: xxxxxxxx rs_valid_inst_out:001 ex_valid_inst_out: 001
time:  755
DONE ROB : PC=00000028 CDB TARGET=0000002c IDX=10
HEAD: 7 TAIL:12 NUM_FREE:11
COMMIT PC=00000028 MIS=0 IDX=        10
time:  765
DONE ROB : PC=0000002c CDB TARGET=00000030 IDX=11
HEAD:10 TAIL:12 NUM_FREE:14
COMMIT PC=0000002c MIS=0 IDX=        11
time:  766 if_valid_inst_out: 000 id_valid_inst_out: 000 id_IR_out[0]: xxxxxxxx rs_valid_inst_out:000 ex_valid_inst_out: 000
time:  775
HEAD:11 TAIL:12 NUM_FREE:15
time:  785
HEAD:12 TAIL:12 NUM_FREE:16
time:  795
HEAD:12 TAIL:12 NUM_FREE:16
time:  805
HEAD:12 TAIL:12 NUM_FREE:16
time:  815
HEAD:12 TAIL:12 NUM_FREE:16
time:  825
HEAD:12 TAIL:12 NUM_FREE:16
time:  825 if_valid_inst_out: 000 id_valid_inst_out: 000 id_IR_out[0]: ff010113 rs_valid_inst_out:000 ex_valid_inst_out: 000
time:  835
HEAD:12 TAIL:12 NUM_FREE:16
time:  845
HEAD:12 TAIL:12 NUM_FREE:16
time:  855
HEAD:12 TAIL:12 NUM_FREE:16
time:  865
HEAD:12 TAIL:12 NUM_FREE:16
time:  875
HEAD:12 TAIL:12 NUM_FREE:16
time:  885
HEAD:12 TAIL:12 NUM_FREE:16
time:  895
HEAD:12 TAIL:12 NUM_FREE:16
time:  905
HEAD:12 TAIL:12 NUM_FREE:16
time:  915
HEAD:12 TAIL:12 NUM_FREE:16
time:  925
HEAD:12 TAIL:12 NUM_FREE:16
time:  935
HEAD:12 TAIL:12 NUM_FREE:16
time:  945
HEAD:12 TAIL:12 NUM_FREE:16
time:  955
HEAD:12 TAIL:12 NUM_FREE:16
time:  965
HEAD:12 TAIL:12 NUM_FREE:16
time:  975
HEAD:12 TAIL:12 NUM_FREE:16
time:  985
HEAD:12 TAIL:12 NUM_FREE:16
time:  995
HEAD:12 TAIL:12 NUM_FREE:16
time: 1005
HEAD:12 TAIL:12 NUM_FREE:16
time: 1015
HEAD:12 TAIL:12 NUM_FREE:16
time: 1025
HEAD:12 TAIL:12 NUM_FREE:16
time: 1035
HEAD:12 TAIL:12 NUM_FREE:16
time: 1045
HEAD:12 TAIL:12 NUM_FREE:16
time: 1045 if_valid_inst_out: 111 id_valid_inst_out: 111 id_IR_out[0]: ff010113 rs_valid_inst_out:000 ex_valid_inst_out: 000
time: 1055
HEAD:12 TAIL:12 NUM_FREE:16
time: 1056 if_valid_inst_out: 111 id_valid_inst_out: 111 id_IR_out[0]: 00000013 rs_valid_inst_out:000 ex_valid_inst_out: 000
time: 1065
HEAD:12 TAIL:12 NUM_FREE:16
time: 1066 if_valid_inst_out: 000 id_valid_inst_out: 000 id_IR_out[0]: xxxxxxxx rs_valid_inst_out:001 ex_valid_inst_out: 001
time: 1075
DONE ROB : PC=00000030 CDB TARGET=00000034 IDX=12
HEAD:12 TAIL:15 NUM_FREE:13
COMMIT PC=00000030 MIS=0 IDX=        12
COMMIT PC=00000030 MIS=0 IDX=        12
time: 1076 if_valid_inst_out: 000 id_valid_inst_out: 000 id_IR_out[0]: xxxxxxxx rs_valid_inst_out:111 ex_valid_inst_out: 111
time: 1085
DONE ROB : PC=0000003c CDB TARGET=00000040 IDX=15
DONE ROB : PC=00000044 CDB TARGET=00000048 IDX= 1
HEAD:12 TAIL: 2 NUM_FREE:10
time: 1086 if_valid_inst_out: 000 id_valid_inst_out: 000 id_IR_out[0]: xxxxxxxx rs_valid_inst_out:001 ex_valid_inst_out: 001
time: 1095
DONE ROB : PC=00000040 CDB TARGET=00000044 IDX= 0
HEAD:13 TAIL: 2 NUM_FREE:11
time: 1096 if_valid_inst_out: 000 id_valid_inst_out: 000 id_IR_out[0]: xxxxxxxx rs_valid_inst_out:000 ex_valid_inst_out: 000
time: 1105
HEAD:13 TAIL: 2 NUM_FREE:11
time: 1115
HEAD:13 TAIL: 2 NUM_FREE:11
time: 1125
HEAD:13 TAIL: 2 NUM_FREE:11
time: 1135
HEAD:13 TAIL: 2 NUM_FREE:11
time: 1145
HEAD:13 TAIL: 2 NUM_FREE:11
time: 1155
HEAD:13 TAIL: 2 NUM_FREE:11
time: 1165
HEAD:13 TAIL: 2 NUM_FREE:11
time: 1165 if_valid_inst_out: 000 id_valid_inst_out: 000 id_IR_out[0]: 00000000 rs_valid_inst_out:000 ex_valid_inst_out: 000
time: 1175
HEAD:13 TAIL: 2 NUM_FREE:11
time: 1185
HEAD:13 TAIL: 2 NUM_FREE:11
time: 1195
HEAD:13 TAIL: 2 NUM_FREE:11
time: 1205
HEAD:13 TAIL: 2 NUM_FREE:11
time: 1215
DONE ROB : PC=00000034 CDB TARGET=00000000 IDX=13
HEAD:13 TAIL: 2 NUM_FREE:11
COMMIT PC=00000034 MIS=1 IDX=        13
time: 1216 if_valid_inst_out: 000 id_valid_inst_out: 000 id_IR_out[0]: 00000000 rs_valid_inst_out:001 ex_valid_inst_out: 001
time: 1225
DONE ROB : PC=00000038 CDB TARGET=0000003c IDX=14
HEAD:13 TAIL: 2 NUM_FREE:11
COMMIT PC=00000038 MIS=0 IDX=        14
COMMIT PC=0000003c MIS=0 IDX=        15
COMMIT PC=00000040 MIS=0 IDX=         0
time: 1226 if_valid_inst_out: 000 id_valid_inst_out: 000 id_IR_out[0]: 00000000 rs_valid_inst_out:000 ex_valid_inst_out: 000
time: 1235
DONE ROB : PC=00000040 CDB TARGET=00000000 IDX= 0
HEAD:14 TAIL: 2 NUM_FREE:12
COMMIT PC=00000044 MIS=0 IDX=         1
@@@ Unified Memory contents hex on left, decimal on right: 
@@@
@@@ mem[    0] = 0000051300000013 : 5579162517523
@@@ mem[    8] = 01a58593000035b7 : 118647831601886647
@@@ mem[   16] = 0000113715600613 : 18928279488019
@@@ mem[   24] = 00b1202380010113 : 49856407721279763
@@@ mem[   32] = 00a6053300410113 : 46730562739699987
@@@ mem[   40] = 00a1202300b60533 : 45352805958288691
@@@ mem[   48] = 00012503ff010113 : 322174070096147
@@@ mem[   56] = 0000001340a60533 : 82689000755
@@@ mem[   64] = 1050007300000013 : 1175439996664938515
@@@
@@@ mem[ 2048] = 000031700000301a : 54357106110490
@@@
@@@
@@                 12420 : System halted
@@
@@@ System halted on WFI instruction
@@@
@@
@@  121 cycles / 17 instrs = 7.117647 CPI
@@
@@  1200.00 ns total time to execute
@@

time: 1245
HEAD: 1 TAIL: 2 NUM_FREE:15
time: 1255
HEAD: 2 TAIL: 2 NUM_FREE:16
time: 1265
HEAD: 2 TAIL: 2 NUM_FREE:16
time: 1275
HEAD: 2 TAIL: 2 NUM_FREE:16
time: 1285
HEAD: 2 TAIL: 2 NUM_FREE:16
time: 1295
HEAD: 2 TAIL: 2 NUM_FREE:16
time: 1305
HEAD: 2 TAIL: 2 NUM_FREE:16
time: 1315
HEAD: 2 TAIL: 2 NUM_FREE:16
time: 1325
HEAD: 2 TAIL: 2 NUM_FREE:16
time: 1335
HEAD: 2 TAIL: 2 NUM_FREE:16
$finish called from file "testbench/testbench.sv", line 307.
$finish at simulation time                13420
           V C S   S i m u l a t i o n   R e p o r t 
Time: 1342000 ps
CPU Time:      0.420 seconds;       Data structure size:   1.0Mb
Tue Apr 14 18:58:25 2020
