program.out
Chronologic VCS simulator copyright 1991-2017
Contains Synopsys proprietary information.
Compiler version N-2017.12-SP2-1_Full64; Runtime version N-2017.12-SP2-1_Full64;  Apr  1 17:52 2020
VCD+ Writer N-2017.12-SP2-1_Full64 Copyright (c) 1991-2017 by Synopsys Inc.
@@
@@
@@                     0  Asserting System reset......
@@
@@                     0 : System STILL at reset, can't show anything
@@
time:    0 if_valid_inst_out: xxx id_valid_inst_out: xxx id_IR_out[0]: xxxxxxxx ex_valid_inst_out: 000
time:    5
time:    6 if_valid_inst_out: 111 id_valid_inst_out: 000 id_IR_out[0]: xxxxxxxx ex_valid_inst_out: 000
@@
@@                   100 : System STILL at reset, can't show anything
@@
time:   15
@@
@@                   200 : System STILL at reset, can't show anything
@@
time:   25
time:   26 if_valid_inst_out: 111 id_valid_inst_out: 000 id_IR_out[0]: 00000000 ex_valid_inst_out: 000
@@
@@                   300 : System STILL at reset, can't show anything
@@
time:   35
@@                   360  Deasserting System reset......
@@
@@
time:   45
time:   46 if_valid_inst_out: 000 id_valid_inst_out: 000 id_IR_out[0]: 00000000 ex_valid_inst_out: 000
time:   55
time:   65
time:   75
time:   85
time:   95
time:  105
time:  115
time:  125
time:  135
time:  145
time:  155
time:  156 if_valid_inst_out: 000 id_valid_inst_out: 000 id_IR_out[0]: 00800113 ex_valid_inst_out: 000
time:  165
time:  175
time:  185
time:  195
time:  205
time:  215
time:  225
time:  235
time:  245
time:  255
time:  265
time:  266 if_valid_inst_out: 111 id_valid_inst_out: 111 id_IR_out[0]: 00800113 ex_valid_inst_out: 000
time:  275
time:  276 if_valid_inst_out: 000 id_valid_inst_out: 000 id_IR_out[0]: 01019193 ex_valid_inst_out: 000
time:  285
time:  285 if_valid_inst_out: 000 id_valid_inst_out: 000 id_IR_out[0]: 01019193 ex_valid_inst_out: 011
time:  295
time:  295 if_valid_inst_out: 000 id_valid_inst_out: 000 id_IR_out[0]: 01019193 ex_valid_inst_out: 001
time:  305
time:  305 if_valid_inst_out: 000 id_valid_inst_out: 000 id_IR_out[0]: 01019193 ex_valid_inst_out: 000
time:  315
time:  325
time:  335
time:  345
time:  355
time:  365
time:  375
time:  385
time:  386 if_valid_inst_out: 111 id_valid_inst_out: 111 id_IR_out[0]: 01019193 ex_valid_inst_out: 000
time:  395
time:  396 if_valid_inst_out: 000 id_valid_inst_out: 000 id_IR_out[0]: xxxxxxxx ex_valid_inst_out: 000
time:  405
time:  405 if_valid_inst_out: 000 id_valid_inst_out: 000 id_IR_out[0]: xxxxxxxx ex_valid_inst_out: 011
time:  415
time:  415 if_valid_inst_out: 000 id_valid_inst_out: 000 id_IR_out[0]: xxxxxxxx ex_valid_inst_out: 001
time:  425
time:  425 if_valid_inst_out: 000 id_valid_inst_out: 000 id_IR_out[0]: xxxxxxxx ex_valid_inst_out: 000
time:  435
time:  445
time:  455
time:  465
time:  475
time:  485
time:  495
time:  505
time:  506 if_valid_inst_out: 000 id_valid_inst_out: 000 id_IR_out[0]: 0011e1b3 ex_valid_inst_out: 000
time:  515
time:  525
time:  535
time:  545
time:  555
time:  565
time:  575
time:  585
time:  595
time:  605
time:  615
time:  616 if_valid_inst_out: 111 id_valid_inst_out: 111 id_IR_out[0]: 0011e1b3 ex_valid_inst_out: 000
time:  625
time:  626 if_valid_inst_out: 000 id_valid_inst_out: 000 id_IR_out[0]: 00c19193 ex_valid_inst_out: 000
time:  635
time:  635 if_valid_inst_out: 000 id_valid_inst_out: 000 id_IR_out[0]: 00c19193 ex_valid_inst_out: 011
time:  645
time:  645 if_valid_inst_out: 000 id_valid_inst_out: 000 id_IR_out[0]: 00c19193 ex_valid_inst_out: 001
time:  655
time:  655 if_valid_inst_out: 000 id_valid_inst_out: 000 id_IR_out[0]: 00c19193 ex_valid_inst_out: 000
time:  665
time:  675
time:  685
time:  695
time:  705
time:  715
time:  725
time:  735
time:  736 if_valid_inst_out: 111 id_valid_inst_out: 111 id_IR_out[0]: 00c19193 ex_valid_inst_out: 000
time:  745
time:  746 if_valid_inst_out: 000 id_valid_inst_out: 000 id_IR_out[0]: xxxxxxxx ex_valid_inst_out: 000
time:  755
time:  755 if_valid_inst_out: 000 id_valid_inst_out: 000 id_IR_out[0]: xxxxxxxx ex_valid_inst_out: 011
time:  765
time:  765 if_valid_inst_out: 000 id_valid_inst_out: 000 id_IR_out[0]: xxxxxxxx ex_valid_inst_out: 001
time:  775
time:  775 if_valid_inst_out: 000 id_valid_inst_out: 000 id_IR_out[0]: xxxxxxxx ex_valid_inst_out: 000
time:  785
time:  795
time:  805
time:  815
time:  825
time:  835
time:  845
time:  855
time:  856 if_valid_inst_out: 000 id_valid_inst_out: 000 id_IR_out[0]: 00c19193 ex_valid_inst_out: 000
time:  865
time:  875
time:  885
time:  895
time:  905
time:  915
time:  925
time:  935
time:  945
time:  955
time:  965
time:  966 if_valid_inst_out: 111 id_valid_inst_out: 111 id_IR_out[0]: 00c19193 ex_valid_inst_out: 000
time:  975
time:  976 if_valid_inst_out: 000 id_valid_inst_out: 000 id_IR_out[0]: 00819193 ex_valid_inst_out: 000
time:  985
time:  985 if_valid_inst_out: 000 id_valid_inst_out: 000 id_IR_out[0]: 00819193 ex_valid_inst_out: 011
time:  995
time:  995 if_valid_inst_out: 000 id_valid_inst_out: 000 id_IR_out[0]: 00819193 ex_valid_inst_out: 001
time: 1005
time: 1005 if_valid_inst_out: 000 id_valid_inst_out: 000 id_IR_out[0]: 00819193 ex_valid_inst_out: 000
time: 1015
time: 1025
time: 1035
time: 1045
time: 1055
time: 1065
time: 1075
time: 1085
time: 1086 if_valid_inst_out: 111 id_valid_inst_out: 111 id_IR_out[0]: 00819193 ex_valid_inst_out: 000
time: 1095
time: 1096 if_valid_inst_out: 000 id_valid_inst_out: 000 id_IR_out[0]: xxxxxxxx ex_valid_inst_out: 000
time: 1105
time: 1105 if_valid_inst_out: 000 id_valid_inst_out: 000 id_IR_out[0]: xxxxxxxx ex_valid_inst_out: 011
time: 1115
time: 1115 if_valid_inst_out: 000 id_valid_inst_out: 000 id_IR_out[0]: xxxxxxxx ex_valid_inst_out: 001
time: 1125
time: 1125 if_valid_inst_out: 000 id_valid_inst_out: 000 id_IR_out[0]: xxxxxxxx ex_valid_inst_out: 000
time: 1135
time: 1145
time: 1155
time: 1165
time: 1175
time: 1185
time: 1195
time: 1205
time: 1206 if_valid_inst_out: 000 id_valid_inst_out: 000 id_IR_out[0]: b5020213 ex_valid_inst_out: 000
time: 1215
time: 1225
time: 1235
time: 1245
time: 1255
time: 1265
time: 1275
time: 1285
time: 1295
time: 1305
time: 1315
time: 1316 if_valid_inst_out: 111 id_valid_inst_out: 111 id_IR_out[0]: b5020213 ex_valid_inst_out: 000
time: 1325
time: 1326 if_valid_inst_out: 000 id_valid_inst_out: 000 id_IR_out[0]: 00126233 ex_valid_inst_out: 000
time: 1335
time: 1335 if_valid_inst_out: 000 id_valid_inst_out: 000 id_IR_out[0]: 00126233 ex_valid_inst_out: 011
time: 1345
time: 1345 if_valid_inst_out: 000 id_valid_inst_out: 000 id_IR_out[0]: 00126233 ex_valid_inst_out: 001
time: 1355
time: 1355 if_valid_inst_out: 000 id_valid_inst_out: 000 id_IR_out[0]: 00126233 ex_valid_inst_out: 000
time: 1365
time: 1375
time: 1385
time: 1395
time: 1405
time: 1415
time: 1425
time: 1435
time: 1436 if_valid_inst_out: 111 id_valid_inst_out: 111 id_IR_out[0]: 00126233 ex_valid_inst_out: 000
time: 1445
time: 1446 if_valid_inst_out: 000 id_valid_inst_out: 000 id_IR_out[0]: xxxxxxxx ex_valid_inst_out: 000
time: 1455
time: 1455 if_valid_inst_out: 000 id_valid_inst_out: 000 id_IR_out[0]: xxxxxxxx ex_valid_inst_out: 011
time: 1465
time: 1465 if_valid_inst_out: 000 id_valid_inst_out: 000 id_IR_out[0]: xxxxxxxx ex_valid_inst_out: 001
time: 1475
time: 1475 if_valid_inst_out: 000 id_valid_inst_out: 000 id_IR_out[0]: xxxxxxxx ex_valid_inst_out: 000
time: 1485
time: 1495
time: 1505
time: 1515
time: 1525
time: 1535
time: 1545
time: 1555
time: 1556 if_valid_inst_out: 000 id_valid_inst_out: 000 id_IR_out[0]: 00126233 ex_valid_inst_out: 000
time: 1565
time: 1575
time: 1585
time: 1595
time: 1605
time: 1615
time: 1625
time: 1635
time: 1645
time: 1655
time: 1665
time: 1666 if_valid_inst_out: 111 id_valid_inst_out: 111 id_IR_out[0]: 00126233 ex_valid_inst_out: 000
time: 1675
time: 1676 if_valid_inst_out: 000 id_valid_inst_out: 000 id_IR_out[0]: 0102a313 ex_valid_inst_out: 000
time: 1685
time: 1685 if_valid_inst_out: 000 id_valid_inst_out: 000 id_IR_out[0]: 0102a313 ex_valid_inst_out: 011
time: 1695
time: 1695 if_valid_inst_out: 000 id_valid_inst_out: 000 id_IR_out[0]: 0102a313 ex_valid_inst_out: 001
time: 1705
time: 1705 if_valid_inst_out: 000 id_valid_inst_out: 000 id_IR_out[0]: 0102a313 ex_valid_inst_out: 000
time: 1715
time: 1725
time: 1735
time: 1745
time: 1755
time: 1765
time: 1775
time: 1785
time: 1786 if_valid_inst_out: 111 id_valid_inst_out: 111 id_IR_out[0]: 0102a313 ex_valid_inst_out: 000
time: 1795
time: 1796 if_valid_inst_out: 000 id_valid_inst_out: 000 id_IR_out[0]: xxxxxxxx ex_valid_inst_out: 000
time: 1805
time: 1805 if_valid_inst_out: 000 id_valid_inst_out: 000 id_IR_out[0]: xxxxxxxx ex_valid_inst_out: 011
time: 1815
time: 1815 if_valid_inst_out: 000 id_valid_inst_out: 000 id_IR_out[0]: xxxxxxxx ex_valid_inst_out: 001
time: 1825
time: 1825 if_valid_inst_out: 000 id_valid_inst_out: 000 id_IR_out[0]: xxxxxxxx ex_valid_inst_out: 000
time: 1835
time: 1845
time: 1855
time: 1865
time: 1875
time: 1885
time: 1895
time: 1905
time: 1906 if_valid_inst_out: 000 id_valid_inst_out: 000 id_IR_out[0]: 02358633 ex_valid_inst_out: 000
time: 1915
time: 1925
time: 1935
time: 1945
time: 1955
time: 1965
time: 1975
time: 1985
time: 1995
time: 2005
time: 2015
time: 2016 if_valid_inst_out: 111 id_valid_inst_out: 111 id_IR_out[0]: 02358633 ex_valid_inst_out: 000
time: 2025
time: 2026 if_valid_inst_out: 000 id_valid_inst_out: 000 id_IR_out[0]: 004686b3 ex_valid_inst_out: 000
time: 2035
time: 2035 if_valid_inst_out: 000 id_valid_inst_out: 000 id_IR_out[0]: 004686b3 ex_valid_inst_out: 001
time: 2045
time: 2055
time: 2065
time: 2065 if_valid_inst_out: 000 id_valid_inst_out: 000 id_IR_out[0]: 004686b3 ex_valid_inst_out: 000
time: 2075
time: 2085
time: 2095
time: 2105
time: 2115
time: 2125
time: 2135
time: 2136 if_valid_inst_out: 111 id_valid_inst_out: 111 id_IR_out[0]: 004686b3 ex_valid_inst_out: 000
time: 2145
time: 2146 if_valid_inst_out: 000 id_valid_inst_out: 000 id_IR_out[0]: xxxxxxxx ex_valid_inst_out: 000
time: 2155
time: 2155 if_valid_inst_out: 000 id_valid_inst_out: 000 id_IR_out[0]: xxxxxxxx ex_valid_inst_out: 001
time: 2165
time: 2175
time: 2185
time: 2185 if_valid_inst_out: 000 id_valid_inst_out: 000 id_IR_out[0]: xxxxxxxx ex_valid_inst_out: 000
time: 2195
time: 2205
time: 2215
time: 2225
time: 2235
time: 2245
time: 2255
time: 2256 if_valid_inst_out: 000 id_valid_inst_out: 000 id_IR_out[0]: 0105d593 ex_valid_inst_out: 000
time: 2265
time: 2275
time: 2285
time: 2295
time: 2305
time: 2315
time: 2325
time: 2335
time: 2345
time: 2355
time: 2365
time: 2366 if_valid_inst_out: 111 id_valid_inst_out: 111 id_IR_out[0]: 0105d593 ex_valid_inst_out: 000
time: 2375
time: 2376 if_valid_inst_out: 000 id_valid_inst_out: 000 id_IR_out[0]: 01015713 ex_valid_inst_out: 000
time: 2385
time: 2385 if_valid_inst_out: 000 id_valid_inst_out: 000 id_IR_out[0]: 01015713 ex_valid_inst_out: 011
time: 2395
time: 2395 if_valid_inst_out: 000 id_valid_inst_out: 000 id_IR_out[0]: 01015713 ex_valid_inst_out: 001
time: 2405
time: 2405 if_valid_inst_out: 000 id_valid_inst_out: 000 id_IR_out[0]: 01015713 ex_valid_inst_out: 000
time: 2415
time: 2425
time: 2435
time: 2445
time: 2455
time: 2465
time: 2475
time: 2485
opa_valid: x opa_valid_tmp: xx1 opa_arn: 06
opa_value[i]: xxxxxxxx opb_value[i]: xxxxxxxx rs1_value: xxxxxxxx rs2_value: xxxxxxxx
opa_value[i]: xxxxxxxx opb_value[i]: xxxxxxxx rs1_value: xxxxxxxx rs2_value: xxxxxxxx
opa_value[i]: 00000001 opb_value[i]: 00000000 rs1_value: xxxxxxxx rs2_value: xxxxxxxx
opa_value[i]: 00000001 opb_value[i]: 00000000 rs1_value: xxxxxxxx rs2_value: xxxxxxxx
time: 2486 if_valid_inst_out: 111 id_valid_inst_out: 111 id_IR_out[0]: 01015713 ex_valid_inst_out: 000
time: 2495
opa_value[i]: 00000001 opb_value[i]: 00000000 rs1_value: xxxxxxxx rs2_value: xxxxxxxx
opa_value[i]: 00000001 opb_value[i]: 00000000 rs1_value: xxxxxxxx rs2_value: xxxxxxxx
time: 2496 if_valid_inst_out: 000 id_valid_inst_out: 000 id_IR_out[0]: xxxxxxxx ex_valid_inst_out: 000
time: 2505
--------------
at bne: rs1_value: xxxxxxxx id_ex_opa_valid: 1 rs2_value: xxxxxxxx id_ex_opa_valid: 1
-------------------
at bne: take_branch: 1 cond_branch: 1 brcond_result:x rs1_value: xxxxxxxx rs2_value: xxxxxxxx
-------------------
at bne: take_branch: 1 cond_branch: 1 brcond_result:1 rs1_value: xxxxxxxx rs2_value: xxxxxxxx
-------------------
at bne: take_branch: x cond_branch: 1 brcond_result:x rs1_value: xxxxxxxx rs2_value: xxxxxxxx
time: 2505 if_valid_inst_out: 000 id_valid_inst_out: 000 id_IR_out[0]: xxxxxxxx ex_valid_inst_out: 111
time: 2515
time: 2515 if_valid_inst_out: 000 id_valid_inst_out: 000 id_IR_out[0]: xxxxxxxx ex_valid_inst_out: 000
time: 2525
time: 2535
time: 2545
time: 2555
time: 2565
time: 2575
time: 2585
time: 2595
time: 2605
time: 2606 if_valid_inst_out: 000 id_valid_inst_out: 000 id_IR_out[0]: 10500073 ex_valid_inst_out: 000
time: 2615
time: 2625
time: 2635
time: 2645
time: 2655
time: 2665
time: 2675
time: 2685
time: 2695
time: 2705
time: 2715
time: 2716 if_valid_inst_out: 111 id_valid_inst_out: 001 id_IR_out[0]: 10500073 ex_valid_inst_out: 000
time: 2725
time: 2726 if_valid_inst_out: 000 id_valid_inst_out: 000 id_IR_out[0]: 00000000 ex_valid_inst_out: 000
time: 2735
time: 2735 if_valid_inst_out: 000 id_valid_inst_out: 000 id_IR_out[0]: 00000000 ex_valid_inst_out: 001
time: 2745
time: 2745 if_valid_inst_out: 000 id_valid_inst_out: 000 id_IR_out[0]: 00000000 ex_valid_inst_out: 000
@@@ Unified Memory contents hex on left, decimal on right: 
@@@
@@@ mem[    0] = 000021b700800113 : 37069871120659
@@@ mem[    8] = 010191937bb18193 : 72499131636089235
@@@ mem[   16] = ee608093000030b7 : 17176870347639632055
@@@ mem[   24] = 000010b70011e1b3 : 18378166231475
@@@ mem[   32] = 00c1919387b08093 : 54484733327868051
@@@ mem[   40] = 0b0000930011e1b3 : 792634165778571699
@@@ mem[   48] = 0011e1b300c19193 : 5033233532162451
@@@ mem[   56] = 008191930fd00093 : 36470332807184531
@@@ mem[   64] = 000012370011e1b3 : 20027433673139
@@@ mem[   72] = 00c21213b5020213 : 54626021332353555
@@@ mem[   80] = 001262334f300093 : 5174522092191891
@@@ mem[   88] = 0042121302d00093 : 18597221323767955
@@@ mem[   96] = 0000029300126233 : 2830384652851
@@@ mem[  104] = 0102a31300128293 : 72799845992268435
@@@ mem[  112] = 004585b3023105b3 : 19568777275442611
@@@ mem[  120] = 0046063302358633 : 19710064519906867
@@@ mem[  128] = 004686b3023606b3 : 19851351764108979
@@@ mem[  136] = 0041013302368133 : 18297192078278963
@@@ mem[  144] = 010656130105d593 : 73841083519718803
@@@ mem[  152] = 010157130106d693 : 72434808147859091
@@@ mem[  160] = fc0312e301008093 : 18159378888671658131
@@@ mem[  168] = 0000000010500073 : 273678451
@@@
@@@
@@                 27520 : System halted
@@
@@@ System halted on WFI instruction
@@@
@@
@@  272 cycles / 42 instrs = 6.476190 CPI
@@
@@  2710.00 ns total time to execute
@@

time: 2755
time: 2765
time: 2775
time: 2785
time: 2795
time: 2805
time: 2815
time: 2825
time: 2835
time: 2836 if_valid_inst_out: 111 id_valid_inst_out: 000 id_IR_out[0]: 00000000 ex_valid_inst_out: 000
time: 2845
time: 2846 if_valid_inst_out: 000 id_valid_inst_out: 000 id_IR_out[0]: xxxxxxxx ex_valid_inst_out: 000
$finish called from file "testbench/testbench.sv", line 258.
$finish at simulation time                28520
           V C S   S i m u l a t i o n   R e p o r t 
Time: 2852000 ps
CPU Time:      0.410 seconds;       Data structure size:   0.3Mb
Wed Apr  1 17:52:03 2020
