testbench/program.out
Chronologic VCS simulator copyright 1991-2017
Contains Synopsys proprietary information.
Compiler version N-2017.12-SP2-1_Full64; Runtime version N-2017.12-SP2-1_Full64;  Mar 31 01:05 2020
start
Time|reset
   0  x  
PC_reg_hub[0]: xxxxxxxx PC_reg_hub[1]: xxxxxxxx PC_reg_hub[2]: xxxxxxxx
proc2Icache_addr[0]: xxxxxxxX proc2Icache_addr[1]: xxxxxxxX proc2Icache_addr[2]: xxxxxxxX
  10  1  
PC_reg_hub[0]: xxxxxxxx PC_reg_hub[1]: xxxxxxxx PC_reg_hub[2]: xxxxxxxx
proc2Icache_addr[0]: xxxxxxxX proc2Icache_addr[1]: xxxxxxxX proc2Icache_addr[2]: xxxxxxxX
  20  0  
PC_reg_hub[0]: 00000000 PC_reg_hub[1]: 00000004 PC_reg_hub[2]: 00000008
proc2Icache_addr[0]: 00000000 proc2Icache_addr[1]: 00000000 proc2Icache_addr[2]: 00000008
PC_reg_hub[0]: 0000000c PC_reg_hub[1]: 00000010 PC_reg_hub[2]: 00000014
proc2Icache_addr[0]: 00000008 proc2Icache_addr[1]: 00000010 proc2Icache_addr[2]: 00000010
PC_reg_hub[0]: 00000018 PC_reg_hub[1]: 0000001c PC_reg_hub[2]: 00000020
proc2Icache_addr[0]: 00000018 proc2Icache_addr[1]: 00000018 proc2Icache_addr[2]: 00000020
PC_reg_hub[0]: 00000024 PC_reg_hub[1]: 00000028 PC_reg_hub[2]: 0000002c
proc2Icache_addr[0]: 00000020 proc2Icache_addr[1]: 00000028 proc2Icache_addr[2]: 00000028
PC_reg_hub[0]: 00000030 PC_reg_hub[1]: 00000034 PC_reg_hub[2]: 00000038
proc2Icache_addr[0]: 00000030 proc2Icache_addr[1]: 00000030 proc2Icache_addr[2]: 00000038
PC_reg_hub[0]: 0000003c PC_reg_hub[1]: 00000040 PC_reg_hub[2]: 00000044
proc2Icache_addr[0]: 00000038 proc2Icache_addr[1]: 00000040 proc2Icache_addr[2]: 00000040
PC_reg_hub[0]: 00000048 PC_reg_hub[1]: 0000004c PC_reg_hub[2]: 00000050
proc2Icache_addr[0]: 00000048 proc2Icache_addr[1]: 00000048 proc2Icache_addr[2]: 00000050
PC_reg_hub[0]: 00000054 PC_reg_hub[1]: 00000058 PC_reg_hub[2]: 0000005c
proc2Icache_addr[0]: 00000050 proc2Icache_addr[1]: 00000058 proc2Icache_addr[2]: 00000058
PC_reg_hub[0]: 00000060 PC_reg_hub[1]: 00000064 PC_reg_hub[2]: 00000068
proc2Icache_addr[0]: 00000060 proc2Icache_addr[1]: 00000060 proc2Icache_addr[2]: 00000068
PC_reg_hub[0]: 0000006c PC_reg_hub[1]: 00000070 PC_reg_hub[2]: 00000074
proc2Icache_addr[0]: 00000068 proc2Icache_addr[1]: 00000070 proc2Icache_addr[2]: 00000070
PC_reg_hub[0]: 00000078 PC_reg_hub[1]: 0000007c PC_reg_hub[2]: 00000080
proc2Icache_addr[0]: 00000078 proc2Icache_addr[1]: 00000078 proc2Icache_addr[2]: 00000080
$finish called from file "if_stage_test.sv", line 53.
$finish at simulation time                 1300
           V C S   S i m u l a t i o n   R e p o r t 
Time: 130000 ps
CPU Time:      0.300 seconds;       Data structure size:   0.0Mb
Tue Mar 31 01:05:16 2020
